[
  {
    "name": "\u0421\u0442\u0430\u0440\u044b\u0439 \u0417\u0430\u043c\u043e\u043a",
    "address": "\u0430,, \u041a\u0440\u0438\u0432\u043e\u0440\u0456\u0437\u044c\u043a\u0430 \u0432\u0443\u043b\u0438\u0446\u044f, 60, \u0414\u043d\u0456\u043f\u0440\u043e\u0301, \u0414\u043d\u0456\u043f\u0440\u043e\u043f\u0435\u0442\u0440\u043e\u0432\u0441\u044c\u043a\u0430 \u043e\u0431\u043b\u0430\u0441\u0442\u044c, Ukraine",
    "phone": null,
    "lat": "48.439907",
    "lng": "34.974270",
    "newScreensEachDay": 35,
    "lastVisit": null,
    "type": 3,
    "notes": null,
    "enabled": true,
    "lastPurchaseTotal": null,
    "lastPurchaseScreens": null,
    "region.name": "Dnipropetrovsk Oblast, Ukraine"
  },
  {
    "name": "Mac I Am LLC - Apple iPhone Repair Phoenix",
    "address": "Freeport-McMoRan Center, Phoenix, AZ 85004, USA",
    "phone": null,
    "lat": "33.450534",
    "lng": "-112.073871",
    "newScreensEachDay": 29,
    "lastVisit": null,
    "type": 3,
    "notes": null,
    "enabled": true,
    "lastPurchaseTotal": null,
    "lastPurchaseScreens": null,
    "region.name": "Arizona, USA"
  },
  {
    "name": "Nextech Repair",
    "address": "9261 East V\u00eda de Ventura, Scottsdale, AZ 85258, USA",
    "phone": null,
    "lat": "33.553021",
    "lng": "-111.881142",
    "newScreensEachDay": 37,
    "lastVisit": null,
    "type": 3,
    "notes": null,
    "enabled": true,
    "lastPurchaseTotal": null,
    "lastPurchaseScreens": null,
    "region.name": "Arizona, USA"
  },
  {
    "name": "Mobil Mania Glendale",
    "address": "6800 N 95th Ave, Glendale, AZ 85305, USA",
    "phone": null,
    "lat": "33.535372",
    "lng": "-112.267156",
    "newScreensEachDay": 29,
    "lastVisit": null,
    "type": 3,
    "notes": null,
    "enabled": true,
    "lastPurchaseTotal": null,
    "lastPurchaseScreens": null,
    "region.name": "Arizona, USA"
  },
  {
    "name": "Hoda's Wireless Accessories 4 Less",
    "address": "2931 W Bell Rd, Phoenix, AZ 85053, USA",
    "phone": null,
    "lat": "33.639135",
    "lng": "-112.123130",
    "newScreensEachDay": 16,
    "lastVisit": null,
    "type": 3,
    "notes": null,
    "enabled": true,
    "lastPurchaseTotal": null,
    "lastPurchaseScreens": null,
    "region.name": "Arizona, USA"
  },
  {
    "name": "deer valley smart device repair",
    "address": "1855 W Deer Valley Rd, Phoenix, AZ 85027, USA",
    "phone": null,
    "lat": "33.683257",
    "lng": "-112.098693",
    "newScreensEachDay": 23,
    "lastVisit": null,
    "type": 3,
    "notes": null,
    "enabled": true,
    "lastPurchaseTotal": null,
    "lastPurchaseScreens": null,
    "region.name": "Arizona, USA"
  },
  {
    "name": "Boo Boo Wireless",
    "address": "11002 Jefferson Ave, Newport News, VA 23601, USA",
    "phone": null,
    "lat": "37.055129",
    "lng": "-76.462652",
    "newScreensEachDay": 33,
    "lastVisit": null,
    "type": 3,
    "notes": null,
    "enabled": true,
    "lastPurchaseTotal": null,
    "lastPurchaseScreens": null,
    "region.name": "Virginia, USA"
  },
  {
    "name": "Wireless 4 Less",
    "address": "1333 Poindexter St, Chesapeake, VA 23324, USA",
    "phone": null,
    "lat": "36.819034",
    "lng": "-76.273130",
    "newScreensEachDay": 5,
    "lastVisit": null,
    "type": 3,
    "notes": null,
    "enabled": true,
    "lastPurchaseTotal": null,
    "lastPurchaseScreens": null,
    "region.name": "Virginia, USA"
  },
  {
    "name": "Cell Phone and Computer Repair",
    "address": "2228 Virginia Beach Blvd, Virginia Beach, VA 23454, USA",
    "phone": null,
    "lat": "36.842428",
    "lng": "-76.046821",
    "newScreensEachDay": 28,
    "lastVisit": null,
    "type": 3,
    "notes": null,
    "enabled": true,
    "lastPurchaseTotal": null,
    "lastPurchaseScreens": null,
    "region.name": "Virginia, USA"
  },
  {
    "name": "iphone and android phone fix",
    "address": "12003 S Avalon Blvd, Los Angeles, CA 90061, USA",
    "phone": null,
    "lat": "33.923246",
    "lng": "-118.265993",
    "newScreensEachDay": 33,
    "lastVisit": null,
    "type": 3,
    "notes": null,
    "enabled": true,
    "lastPurchaseTotal": null,
    "lastPurchaseScreens": null,
    "region.name": "California, USA"
  },
  {
    "name": "Boost Mobile Premier Store",
    "address": "10430 N 19th Ave, Phoenix, AZ 85021, USA",
    "phone": null,
    "lat": "33.581188",
    "lng": "-112.100210",
    "newScreensEachDay": 21,
    "lastVisit": null,
    "type": 3,
    "notes": null,
    "enabled": true,
    "lastPurchaseTotal": null,
    "lastPurchaseScreens": null,
    "region.name": "Arizona, USA"
  },
  {
    "name": "Cell World",
    "address": "2121 Firestone Blvd, Los Angeles, CA 90002, USA",
    "phone": null,
    "lat": "33.960526",
    "lng": "-118.234392",
    "newScreensEachDay": 46,
    "lastVisit": null,
    "type": 3,
    "notes": null,
    "enabled": true,
    "lastPurchaseTotal": null,
    "lastPurchaseScreens": null,
    "region.name": "California, USA"
  },
  {
    "name": "No Name",
    "address": "525 Moonachie Ave, Wood-Ridge, NJ 07075, USA",
    "phone": null,
    "lat": "40.846825",
    "lng": "-74.082683",
    "newScreensEachDay": 24,
    "lastVisit": null,
    "type": 3,
    "notes": null,
    "enabled": true,
    "lastPurchaseTotal": null,
    "lastPurchaseScreens": null,
    "region.name": "New Jersey, USA"
  },
  {
    "name": "No Name",
    "address": "665 S Berendo St, Los Angeles, CA 90005, USA",
    "phone": null,
    "lat": "34.060928",
    "lng": "-118.294235",
    "newScreensEachDay": 17,
    "lastVisit": null,
    "type": 3,
    "notes": null,
    "enabled": true,
    "lastPurchaseTotal": null,
    "lastPurchaseScreens": null,
    "region.name": "California, USA"
  },
  {
    "name": "Agricultural Inspection, Needles",
    "address": "142150 Interstate 40, Needles, CA 92363, United States",
    "phone": null,
    "lat": "34.752563",
    "lng": "-114.565319",
    "newScreensEachDay": 40,
    "lastVisit": null,
    "type": 3,
    "notes": null,
    "enabled": true,
    "lastPurchaseTotal": null,
    "lastPurchaseScreens": null,
    "region.name": "California, USA"
  },
  {
    "name": "Experimac Scottsdale",
    "address": "13802 N Scottsdale Rd, Scottsdale, AZ 85254, USA",
    "phone": null,
    "lat": "33.613032",
    "lng": "-111.927191",
    "newScreensEachDay": 5,
    "lastVisit": null,
    "type": 3,
    "notes": null,
    "enabled": true,
    "lastPurchaseTotal": null,
    "lastPurchaseScreens": null,
    "region.name": "Arizona, USA"
  },
  {
    "name": "iRepairPlus - Scottsdale",
    "address": "7007 E Bell Rd, Scottsdale, AZ 85254, USA",
    "phone": null,
    "lat": "33.638166",
    "lng": "-111.928627",
    "newScreensEachDay": 36,
    "lastVisit": null,
    "type": 3,
    "notes": null,
    "enabled": true,
    "lastPurchaseTotal": null,
    "lastPurchaseScreens": null,
    "region.name": "Arizona, USA"
  },
  {
    "name": "Quick Mobile Repair - iPhone Repair",
    "address": "5555 E Bell Rd, Scottsdale, AZ 85254, USA",
    "phone": null,
    "lat": "33.639761",
    "lng": "-111.960435",
    "newScreensEachDay": 46,
    "lastVisit": null,
    "type": 3,
    "notes": null,
    "enabled": true,
    "lastPurchaseTotal": null,
    "lastPurchaseScreens": null,
    "region.name": "Arizona, USA"
  },
  {
    "name": "Sun Cellular Inc",
    "address": "3329 E Bell Rd, Phoenix, AZ 85032, USA",
    "phone": null,
    "lat": "33.640266",
    "lng": "-112.010365",
    "newScreensEachDay": 2,
    "lastVisit": null,
    "type": 3,
    "notes": null,
    "enabled": true,
    "lastPurchaseTotal": null,
    "lastPurchaseScreens": null,
    "region.name": "Arizona, USA"
  },
  {
    "name": "Mobile Matrix Repair",
    "address": "20280 N 59th Ave, Glendale, AZ 85308, USA",
    "phone": null,
    "lat": "33.670438",
    "lng": "-112.187930",
    "newScreensEachDay": 13,
    "lastVisit": null,
    "type": 3,
    "notes": null,
    "enabled": true,
    "lastPurchaseTotal": null,
    "lastPurchaseScreens": null,
    "region.name": "Arizona, USA"
  },
  {
    "name": "CPR Cell Phone Repair Tolleson",
    "address": "9897 W McDowell Rd, Avondale, AZ 85392, USA",
    "phone": null,
    "lat": "33.463288",
    "lng": "-112.271097",
    "newScreensEachDay": 20,
    "lastVisit": null,
    "type": 3,
    "notes": null,
    "enabled": true,
    "lastPurchaseTotal": null,
    "lastPurchaseScreens": null,
    "region.name": "Arizona, USA"
  },
  {
    "name": "Maia Systems",
    "address": "83-16 Parsons Blvd, Jamaica, NY 11432, USA",
    "phone": null,
    "lat": "40.715186",
    "lng": "-73.807905",
    "newScreensEachDay": 9,
    "lastVisit": null,
    "type": 3,
    "notes": null,
    "enabled": true,
    "lastPurchaseTotal": null,
    "lastPurchaseScreens": null,
    "region.name": "New York, USA"
  },
  {
    "name": "Computer Phone Repair",
    "address": "32-26 Steinway St, Long Island City, NY 11103, USA",
    "phone": null,
    "lat": "40.758293",
    "lng": "-73.919721",
    "newScreensEachDay": 12,
    "lastVisit": null,
    "type": 3,
    "notes": null,
    "enabled": true,
    "lastPurchaseTotal": null,
    "lastPurchaseScreens": null,
    "region.name": "New York, USA"
  },
  {
    "name": "No Name",
    "address": "27-2-27-38 Steinway St, Astoria, NY 11103, USA",
    "phone": null,
    "lat": "40.767751",
    "lng": "-73.912026",
    "newScreensEachDay": 16,
    "lastVisit": null,
    "type": 3,
    "notes": null,
    "enabled": true,
    "lastPurchaseTotal": null,
    "lastPurchaseScreens": null,
    "region.name": "New York, USA"
  },
  {
    "name": "Computer Smartphone Repair",
    "address": "2236a 31st St, Astoria, NY 11105, USA",
    "phone": null,
    "lat": "40.775438",
    "lng": "-73.911848",
    "newScreensEachDay": 22,
    "lastVisit": null,
    "type": 3,
    "notes": null,
    "enabled": true,
    "lastPurchaseTotal": null,
    "lastPurchaseScreens": null,
    "region.name": "New York, USA"
  },
  {
    "name": "Rapid iPhone Repair",
    "address": "1949 E University Dr, Tempe, AZ 85281, USA",
    "phone": null,
    "lat": "33.421774",
    "lng": "-111.902564",
    "newScreensEachDay": 41,
    "lastVisit": null,
    "type": 3,
    "notes": null,
    "enabled": true,
    "lastPurchaseTotal": null,
    "lastPurchaseScreens": null,
    "region.name": "Arizona, USA"
  },
  {
    "name": "Smart Repairs AZ - Cellphone, iPad, and iPhone Screen repair",
    "address": "244 N Country Club Dr, Mesa, AZ 85201, USA",
    "phone": null,
    "lat": "33.419933",
    "lng": "-111.840365",
    "newScreensEachDay": 44,
    "lastVisit": null,
    "type": 3,
    "notes": null,
    "enabled": true,
    "lastPurchaseTotal": null,
    "lastPurchaseScreens": null,
    "region.name": "Arizona, USA"
  },
  {
    "name": "No Name",
    "address": "1476-1478 Fulton St, Brooklyn, NY 11216, USA",
    "phone": null,
    "lat": "40.679892",
    "lng": "-73.941876",
    "newScreensEachDay": 20,
    "lastVisit": null,
    "type": 3,
    "notes": null,
    "enabled": true,
    "lastPurchaseTotal": null,
    "lastPurchaseScreens": null,
    "region.name": "New York, USA"
  },
  {
    "name": "cellphone repairs",
    "address": "124-17 Liberty Ave, Jamaica, NY 11419, USA",
    "phone": null,
    "lat": "40.688208",
    "lng": "-73.819594",
    "newScreensEachDay": 43,
    "lastVisit": null,
    "type": 3,
    "notes": null,
    "enabled": true,
    "lastPurchaseTotal": null,
    "lastPurchaseScreens": null,
    "region.name": "New York, USA"
  },
  {
    "name": "cell phone repair \/ cricket",
    "address": "3223 W Indian School Rd, Phoenix, AZ 85017, USA",
    "phone": null,
    "lat": "33.493949",
    "lng": "-112.129626",
    "newScreensEachDay": 43,
    "lastVisit": null,
    "type": 3,
    "notes": null,
    "enabled": true,
    "lastPurchaseTotal": null,
    "lastPurchaseScreens": null,
    "region.name": "Arizona, USA"
  },
  {
    "name": "Wireless Toyz",
    "address": "4128 N 27th Ave, Phoenix, AZ 85017, USA",
    "phone": null,
    "lat": "33.495887",
    "lng": "-112.117639",
    "newScreensEachDay": 46,
    "lastVisit": null,
    "type": 3,
    "notes": null,
    "enabled": true,
    "lastPurchaseTotal": null,
    "lastPurchaseScreens": null,
    "region.name": "Arizona, USA"
  },
  {
    "name": "ANJ Logistics Cellphone And Laptop Repair",
    "address": "5930 W McDowell Rd, Phoenix, AZ 85035, USA",
    "phone": null,
    "lat": "33.466468",
    "lng": "-112.188425",
    "newScreensEachDay": 32,
    "lastVisit": null,
    "type": 3,
    "notes": null,
    "enabled": true,
    "lastPurchaseTotal": null,
    "lastPurchaseScreens": null,
    "region.name": "Arizona, USA"
  },
  {
    "name": "Boost Mobile Store by Caseta Express",
    "address": "5138 W McDowell Rd, Phoenix, AZ 85035, USA",
    "phone": null,
    "lat": "33.466911",
    "lng": "-112.171080",
    "newScreensEachDay": 25,
    "lastVisit": null,
    "type": 3,
    "notes": null,
    "enabled": true,
    "lastPurchaseTotal": null,
    "lastPurchaseScreens": null,
    "region.name": "Arizona, USA"
  },
  {
    "name": "All Mobile Matters",
    "address": "15147 N Scottsdale Rd, Scottsdale, AZ 85260, USA",
    "phone": null,
    "lat": "33.623740",
    "lng": "-111.923944",
    "newScreensEachDay": 36,
    "lastVisit": null,
    "type": 3,
    "notes": null,
    "enabled": true,
    "lastPurchaseTotal": null,
    "lastPurchaseScreens": null,
    "region.name": "Arizona, USA"
  },
  {
    "name": "Ana's Cellular",
    "address": "10730 W Lower Buckeye Rd, Avondale, AZ 85323, USA",
    "phone": null,
    "lat": "33.421292",
    "lng": "-112.290989",
    "newScreensEachDay": 15,
    "lastVisit": null,
    "type": 3,
    "notes": null,
    "enabled": true,
    "lastPurchaseTotal": null,
    "lastPurchaseScreens": null,
    "region.name": "Arizona, USA"
  },
  {
    "name": "Phone Depot",
    "address": "9611 W Camelback Rd, Phoenix, AZ 85037, USA",
    "phone": null,
    "lat": "33.507593",
    "lng": "-112.266309",
    "newScreensEachDay": 40,
    "lastVisit": null,
    "type": 3,
    "notes": null,
    "enabled": true,
    "lastPurchaseTotal": null,
    "lastPurchaseScreens": null,
    "region.name": "Arizona, USA"
  },
  {
    "name": "iPhixation",
    "address": "Phoenix, AZ 85033, USA",
    "phone": null,
    "lat": "33.477676",
    "lng": "-112.225716",
    "newScreensEachDay": 13,
    "lastVisit": null,
    "type": 3,
    "notes": null,
    "enabled": true,
    "lastPurchaseTotal": null,
    "lastPurchaseScreens": null,
    "region.name": "Arizona, USA"
  },
  {
    "name": "MetroPCS Authorized Dealer",
    "address": "6701 W Thomas Rd, Phoenix, AZ 85033, USA",
    "phone": null,
    "lat": "33.479841",
    "lng": "-112.203800",
    "newScreensEachDay": 46,
    "lastVisit": null,
    "type": 3,
    "notes": null,
    "enabled": true,
    "lastPurchaseTotal": null,
    "lastPurchaseScreens": null,
    "region.name": "Arizona, USA"
  },
  {
    "name": "All Electronics",
    "address": "560 N Mountain Ave, Upland, CA 91786, USA",
    "phone": null,
    "lat": "34.100465",
    "lng": "-117.669427",
    "newScreensEachDay": 44,
    "lastVisit": null,
    "type": 3,
    "notes": null,
    "enabled": true,
    "lastPurchaseTotal": null,
    "lastPurchaseScreens": null,
    "region.name": "California, USA"
  },
  {
    "name": "FreeTouch Wireless",
    "address": "9470 Cuyamaca St, Santee, CA 92071, USA",
    "phone": null,
    "lat": "32.849184",
    "lng": "-116.984364",
    "newScreensEachDay": 39,
    "lastVisit": null,
    "type": 3,
    "notes": null,
    "enabled": true,
    "lastPurchaseTotal": null,
    "lastPurchaseScreens": null,
    "region.name": "California, USA"
  },
  {
    "name": "No Name",
    "address": "171 Olympic Dr, Santa Monica, CA 90401, USA",
    "phone": null,
    "lat": "34.011350",
    "lng": "-118.490928",
    "newScreensEachDay": 32,
    "lastVisit": null,
    "type": 3,
    "notes": null,
    "enabled": true,
    "lastPurchaseTotal": null,
    "lastPurchaseScreens": null,
    "region.name": "California, USA"
  },
  {
    "name": "La Iphone Repair",
    "address": "8947 W Pico Blvd, Los Angeles, CA 90035, USA",
    "phone": null,
    "lat": "34.055541",
    "lng": "-118.387118",
    "newScreensEachDay": 18,
    "lastVisit": null,
    "type": 3,
    "notes": null,
    "enabled": true,
    "lastPurchaseTotal": null,
    "lastPurchaseScreens": null,
    "region.name": "California, USA"
  },
  {
    "name": "CPR Cell Phone Repair Pasadena",
    "address": "12 Harkness Ave, Pasadena, CA 91106, USA",
    "phone": null,
    "lat": "34.146241",
    "lng": "-118.119726",
    "newScreensEachDay": 38,
    "lastVisit": null,
    "type": 3,
    "notes": null,
    "enabled": true,
    "lastPurchaseTotal": null,
    "lastPurchaseScreens": null,
    "region.name": "California, USA"
  },
  {
    "name": "Isa's Wireless Solutions \/Boost Mobile Authorized Dealer",
    "address": "3866 City Terrace Dr, Los Angeles, CA 90063, USA",
    "phone": null,
    "lat": "34.055759",
    "lng": "-118.181083",
    "newScreensEachDay": 10,
    "lastVisit": null,
    "type": 3,
    "notes": null,
    "enabled": true,
    "lastPurchaseTotal": null,
    "lastPurchaseScreens": null,
    "region.name": "California, USA"
  },
  {
    "name": "A to Z Wireless Cellphone & Tablet Repair",
    "address": "1930 S Coast Hwy, Oceanside, CA 92054, USA",
    "phone": null,
    "lat": "33.172673",
    "lng": "-117.359810",
    "newScreensEachDay": 34,
    "lastVisit": null,
    "type": 3,
    "notes": null,
    "enabled": true,
    "lastPurchaseTotal": null,
    "lastPurchaseScreens": null,
    "region.name": "California, USA"
  },
  {
    "name": "Phone Phix",
    "address": "2835 Roosevelt St, Carlsbad, CA 92008, USA",
    "phone": null,
    "lat": "33.161570",
    "lng": "-117.349333",
    "newScreensEachDay": 31,
    "lastVisit": null,
    "type": 3,
    "notes": null,
    "enabled": true,
    "lastPurchaseTotal": null,
    "lastPurchaseScreens": null,
    "region.name": "California, USA"
  },
  {
    "name": "Phone Mav - Mobile iPhone & iPad Repair",
    "address": "935 Laguna Dr, Carlsbad, CA 92008, USA",
    "phone": null,
    "lat": "33.164813",
    "lng": "-117.346719",
    "newScreensEachDay": 13,
    "lastVisit": null,
    "type": 3,
    "notes": null,
    "enabled": true,
    "lastPurchaseTotal": null,
    "lastPurchaseScreens": null,
    "region.name": "California, USA"
  },
  {
    "name": "No Name",
    "address": "12104 Waverly Downs Ln, San Diego, CA 92128, USA",
    "phone": null,
    "lat": "32.985956",
    "lng": "-117.072051",
    "newScreensEachDay": 23,
    "lastVisit": null,
    "type": 3,
    "notes": null,
    "enabled": true,
    "lastPurchaseTotal": null,
    "lastPurchaseScreens": null,
    "region.name": "California, USA"
  },
  {
    "name": "Nexus Shooting",
    "address": "2600 Davie Rd, Davie, FL 33314, USA",
    "phone": null,
    "lat": "26.089213",
    "lng": "-80.227439",
    "newScreensEachDay": 31,
    "lastVisit": null,
    "type": 3,
    "notes": null,
    "enabled": true,
    "lastPurchaseTotal": null,
    "lastPurchaseScreens": null,
    "region.name": "Florida, USA"
  },
  {
    "name": "No Name",
    "address": "16001 W State Rd 84, Sunrise, FL 33326, USA",
    "phone": null,
    "lat": "26.128236",
    "lng": "-80.351896",
    "newScreensEachDay": 14,
    "lastVisit": null,
    "type": 3,
    "notes": null,
    "enabled": true,
    "lastPurchaseTotal": null,
    "lastPurchaseScreens": null,
    "region.name": "Florida, USA"
  },
  {
    "name": "Victory Computer Repair",
    "address": "3018 Victory Blvd, Portsmouth, VA 23702, USA",
    "phone": null,
    "lat": "36.796425",
    "lng": "-76.344781",
    "newScreensEachDay": 35,
    "lastVisit": null,
    "type": 3,
    "notes": null,
    "enabled": true,
    "lastPurchaseTotal": null,
    "lastPurchaseScreens": null,
    "region.name": "Virginia, USA"
  },
  {
    "name": "No Name",
    "address": "6331 Garth Rd, Baytown, TX 77521, USA",
    "phone": null,
    "lat": "29.794026",
    "lng": "-94.980948",
    "newScreensEachDay": 5,
    "lastVisit": null,
    "type": 3,
    "notes": null,
    "enabled": true,
    "lastPurchaseTotal": null,
    "lastPurchaseScreens": null,
    "region.name": "Texas, USA"
  },
  {
    "name": "No Name",
    "address": "3536 Broadway St, Pearland, TX 77581, USA",
    "phone": null,
    "lat": "29.563393",
    "lng": "-95.281341",
    "newScreensEachDay": 22,
    "lastVisit": null,
    "type": 3,
    "notes": null,
    "enabled": true,
    "lastPurchaseTotal": null,
    "lastPurchaseScreens": null,
    "region.name": "Texas, USA"
  },
  {
    "name": "No Name",
    "address": "106 Westheimer Rd, Houston, TX 77006, USA",
    "phone": null,
    "lat": "29.745024",
    "lng": "-95.382134",
    "newScreensEachDay": 46,
    "lastVisit": null,
    "type": 3,
    "notes": null,
    "enabled": true,
    "lastPurchaseTotal": null,
    "lastPurchaseScreens": null,
    "region.name": "Texas, USA"
  },
  {
    "name": "FantasticFitClub",
    "address": "1777 Airline Dr, Houston, TX 77009, USA",
    "phone": null,
    "lat": "29.802745",
    "lng": "-95.382261",
    "newScreensEachDay": 19,
    "lastVisit": null,
    "type": 3,
    "notes": null,
    "enabled": true,
    "lastPurchaseTotal": null,
    "lastPurchaseScreens": null,
    "region.name": "Texas, USA"
  },
  {
    "name": "No Name",
    "address": "8214-8310 Castleford St, Houston, TX 77040, USA",
    "phone": null,
    "lat": "29.854328",
    "lng": "-95.518272",
    "newScreensEachDay": 42,
    "lastVisit": null,
    "type": 3,
    "notes": null,
    "enabled": true,
    "lastPurchaseTotal": null,
    "lastPurchaseScreens": null,
    "region.name": "Texas, USA"
  },
  {
    "name": "No Name",
    "address": "2243 3rd Ave, New York, NY 10035, USA",
    "phone": null,
    "lat": "40.802153",
    "lng": "-73.936779",
    "newScreensEachDay": 40,
    "lastVisit": null,
    "type": 3,
    "notes": null,
    "enabled": true,
    "lastPurchaseTotal": null,
    "lastPurchaseScreens": null,
    "region.name": "New York, USA"
  },
  {
    "name": "Westland Mall",
    "address": "NW 49th St, Hialeah, FL 33012, USA",
    "phone": null,
    "lat": "25.868195",
    "lng": "-80.318109",
    "newScreensEachDay": 16,
    "lastVisit": null,
    "type": 3,
    "notes": null,
    "enabled": true,
    "lastPurchaseTotal": null,
    "lastPurchaseScreens": null,
    "region.name": "Florida, USA"
  },
  {
    "name": "Dolphin Mall",
    "address": "11471 NW 12th St, Miami, FL 33172, USA",
    "phone": null,
    "lat": "25.787026",
    "lng": "-80.380801",
    "newScreensEachDay": 16,
    "lastVisit": null,
    "type": 3,
    "notes": null,
    "enabled": true,
    "lastPurchaseTotal": null,
    "lastPurchaseScreens": null,
    "region.name": "Florida, USA"
  },
  {
    "name": "Miami International Mall",
    "address": "1455 NW 107th Ave, Miami, FL 33172, USA",
    "phone": null,
    "lat": "25.786671",
    "lng": "-80.364960",
    "newScreensEachDay": 37,
    "lastVisit": null,
    "type": 3,
    "notes": null,
    "enabled": true,
    "lastPurchaseTotal": null,
    "lastPurchaseScreens": null,
    "region.name": "Florida, USA"
  },
  {
    "name": "Kendall Mall",
    "address": "8825 SW 107th Ave, Miami, FL 33176, USA",
    "phone": null,
    "lat": "25.685484",
    "lng": "-80.365044",
    "newScreensEachDay": 12,
    "lastVisit": null,
    "type": 3,
    "notes": null,
    "enabled": true,
    "lastPurchaseTotal": null,
    "lastPurchaseScreens": null,
    "region.name": "Florida, USA"
  },
  {
    "name": "Lincoln Road Mall",
    "address": "703-745 Lincoln Rd, Miami Beach, FL 33139, USA",
    "phone": null,
    "lat": "25.790610",
    "lng": "-80.135828",
    "newScreensEachDay": 15,
    "lastVisit": null,
    "type": 3,
    "notes": null,
    "enabled": true,
    "lastPurchaseTotal": null,
    "lastPurchaseScreens": null,
    "region.name": "Florida, USA"
  },
  {
    "name": "B-Z John Computer & Electronics",
    "address": "151 Nassau Ave, Brooklyn, NY 11222, USA",
    "phone": null,
    "lat": "40.725098",
    "lng": "-73.947240",
    "newScreensEachDay": 23,
    "lastVisit": null,
    "type": 3,
    "notes": null,
    "enabled": true,
    "lastPurchaseTotal": null,
    "lastPurchaseScreens": null,
    "region.name": "New York, USA"
  },
  {
    "name": "ipear fix wirelees",
    "address": "92-05 Roosevelt Ave, Flushing, NY 11372, USA",
    "phone": null,
    "lat": "40.748833",
    "lng": "-73.874388",
    "newScreensEachDay": 36,
    "lastVisit": null,
    "type": 3,
    "notes": null,
    "enabled": true,
    "lastPurchaseTotal": null,
    "lastPurchaseScreens": null,
    "region.name": "New York, USA"
  },
  {
    "name": "No Name",
    "address": "1212 Euclid St, Santa Monica, CA 90404, USA",
    "phone": null,
    "lat": "34.025399",
    "lng": "-118.489604",
    "newScreensEachDay": 5,
    "lastVisit": null,
    "type": 3,
    "notes": null,
    "enabled": true,
    "lastPurchaseTotal": null,
    "lastPurchaseScreens": null,
    "region.name": "California, USA"
  },
  {
    "name": "No Name",
    "address": "Pembroke Pines, FL 33026, USA",
    "phone": null,
    "lat": "26.010574",
    "lng": "-80.304614",
    "newScreensEachDay": 36,
    "lastVisit": null,
    "type": 3,
    "notes": null,
    "enabled": true,
    "lastPurchaseTotal": null,
    "lastPurchaseScreens": null,
    "region.name": "Florida, USA"
  },
  {
    "name": "Tu Centro Mobile",
    "address": "220 W 1st St, Santa Ana, CA 92701, USA",
    "phone": null,
    "lat": "33.745195",
    "lng": "-117.869467",
    "newScreensEachDay": 29,
    "lastVisit": null,
    "type": 3,
    "notes": null,
    "enabled": true,
    "lastPurchaseTotal": null,
    "lastPurchaseScreens": null,
    "region.name": "California, USA"
  },
  {
    "name": "Cell Spot Cell Phone Repair",
    "address": "1622 Edinger Ave, Tustin, CA 92780, USA",
    "phone": null,
    "lat": "33.720306",
    "lng": "-117.825804",
    "newScreensEachDay": 16,
    "lastVisit": null,
    "type": 3,
    "notes": null,
    "enabled": true,
    "lastPurchaseTotal": null,
    "lastPurchaseScreens": null,
    "region.name": "California, USA"
  },
  {
    "name": "Cheapest iPhone, iPad, Samsung and Smartphone Repair",
    "address": "17985 Sky Park Cir, Irvine, CA 92614, USA",
    "phone": null,
    "lat": "33.689421",
    "lng": "-117.863635",
    "newScreensEachDay": 36,
    "lastVisit": null,
    "type": 3,
    "notes": null,
    "enabled": true,
    "lastPurchaseTotal": null,
    "lastPurchaseScreens": null,
    "region.name": "California, USA"
  },
  {
    "name": "No Name",
    "address": "11002 Jefferson Ave, Newport News, VA 23601, USA",
    "phone": null,
    "lat": "37.055132",
    "lng": "-76.462651",
    "newScreensEachDay": 26,
    "lastVisit": null,
    "type": 3,
    "notes": null,
    "enabled": true,
    "lastPurchaseTotal": null,
    "lastPurchaseScreens": null,
    "region.name": "Virginia, USA"
  },
  {
    "name": "iRepair Hut",
    "address": "Fort Lauderdale, FL 33306, USA",
    "phone": null,
    "lat": "26.168998",
    "lng": "-80.116205",
    "newScreensEachDay": 8,
    "lastVisit": null,
    "type": 3,
    "notes": null,
    "enabled": true,
    "lastPurchaseTotal": null,
    "lastPurchaseScreens": null,
    "region.name": "Florida, USA"
  },
  {
    "name": "MobileLuv",
    "address": "2216 E Oakland Park Blvd, Fort Lauderdale, FL 33306, USA",
    "phone": null,
    "lat": "26.166990",
    "lng": "-80.117057",
    "newScreensEachDay": 22,
    "lastVisit": null,
    "type": 3,
    "notes": null,
    "enabled": true,
    "lastPurchaseTotal": null,
    "lastPurchaseScreens": null,
    "region.name": "Florida, USA"
  },
  {
    "name": "All Phones Pro",
    "address": "3240 W Hillsboro Blvd, Deerfield Beach, FL 33442, USA",
    "phone": null,
    "lat": "26.317551",
    "lng": "-80.147590",
    "newScreensEachDay": 43,
    "lastVisit": null,
    "type": 3,
    "notes": null,
    "enabled": true,
    "lastPurchaseTotal": null,
    "lastPurchaseScreens": null,
    "region.name": "Florida, USA"
  },
  {
    "name": "Citibank",
    "address": "37-49 74th Street, Jackson Heights, NY 11372, USA",
    "phone": null,
    "lat": "40.747453",
    "lng": "-73.891401",
    "newScreensEachDay": 45,
    "lastVisit": null,
    "type": 3,
    "notes": null,
    "enabled": true,
    "lastPurchaseTotal": null,
    "lastPurchaseScreens": null,
    "region.name": "New York, USA"
  },
  {
    "name": "Phone Repair",
    "address": "59-39 Myrtle Ave, Flushing, NY 11385, USA",
    "phone": null,
    "lat": "40.700651",
    "lng": "-73.898642",
    "newScreensEachDay": 30,
    "lastVisit": null,
    "type": 3,
    "notes": null,
    "enabled": true,
    "lastPurchaseTotal": null,
    "lastPurchaseScreens": null,
    "region.name": "New York, USA"
  },
  {
    "name": "Wireless Tech",
    "address": "56-60 Myrtle Ave, Flushing, NY 11385, USA",
    "phone": null,
    "lat": "40.700246",
    "lng": "-73.903990",
    "newScreensEachDay": 30,
    "lastVisit": null,
    "type": 3,
    "notes": null,
    "enabled": true,
    "lastPurchaseTotal": null,
    "lastPurchaseScreens": null,
    "region.name": "New York, USA"
  },
  {
    "name": "No Name",
    "address": "192 Knickerbocker Ave, Brooklyn, NY 11237, USA",
    "phone": null,
    "lat": "40.703596",
    "lng": "-73.927149",
    "newScreensEachDay": 30,
    "lastVisit": null,
    "type": 3,
    "notes": null,
    "enabled": true,
    "lastPurchaseTotal": null,
    "lastPurchaseScreens": null,
    "region.name": "New York, USA"
  },
  {
    "name": "Ozogeeks (Phonegeeksnyc) - Phone Repair & Macbook Repair + Sales",
    "address": "4 Malcolm X Blvd, Brooklyn, NY 11221, USA",
    "phone": null,
    "lat": "40.694200",
    "lng": "-73.931530",
    "newScreensEachDay": 42,
    "lastVisit": null,
    "type": 3,
    "notes": null,
    "enabled": true,
    "lastPurchaseTotal": null,
    "lastPurchaseScreens": null,
    "region.name": "New York, USA"
  },
  {
    "name": "Best Beep And Cellular",
    "address": "451 Rockaway Ave, Brooklyn, NY 11212, USA",
    "phone": null,
    "lat": "40.668975",
    "lng": "-73.910233",
    "newScreensEachDay": 7,
    "lastVisit": null,
    "type": 3,
    "notes": null,
    "enabled": true,
    "lastPurchaseTotal": null,
    "lastPurchaseScreens": null,
    "region.name": "New York, USA"
  },
  {
    "name": "Royalty iPhone Repair",
    "address": "W cell tower, Woodman Ave, Valley Glen, CA 91401, USA",
    "phone": null,
    "lat": "34.185143",
    "lng": "-118.430865",
    "newScreensEachDay": 14,
    "lastVisit": null,
    "type": 3,
    "notes": null,
    "enabled": true,
    "lastPurchaseTotal": null,
    "lastPurchaseScreens": null,
    "region.name": "California, USA"
  },
  {
    "name": "JusFix Services LLC",
    "address": "1824 Nostrand Ave, Brooklyn, NY 11226, USA",
    "phone": null,
    "lat": "40.641384",
    "lng": "-73.948888",
    "newScreensEachDay": 10,
    "lastVisit": null,
    "type": 3,
    "notes": null,
    "enabled": true,
    "lastPurchaseTotal": null,
    "lastPurchaseScreens": null,
    "region.name": "New York, USA"
  },
  {
    "name": "Boost Mobile Premier Store",
    "address": "948 Flatbush Ave, Brooklyn, NY 11226, USA",
    "phone": null,
    "lat": "40.648357",
    "lng": "-73.958438",
    "newScreensEachDay": 41,
    "lastVisit": null,
    "type": 3,
    "notes": null,
    "enabled": true,
    "lastPurchaseTotal": null,
    "lastPurchaseScreens": null,
    "region.name": "New York, USA"
  },
  {
    "name": "Repair on sight Broken Phone or tablet we come to you",
    "address": "2845 86th St, Brooklyn, NY 11223, USA",
    "phone": null,
    "lat": "40.592283",
    "lng": "-73.977498",
    "newScreensEachDay": 17,
    "lastVisit": null,
    "type": 3,
    "notes": null,
    "enabled": true,
    "lastPurchaseTotal": null,
    "lastPurchaseScreens": null,
    "region.name": "New York, USA"
  },
  {
    "name": "Tmobile\/ BOOST MOBILE",
    "address": "1546 Madison Ave, New York, NY 10029, USA",
    "phone": null,
    "lat": "40.792802",
    "lng": "-73.950413",
    "newScreensEachDay": 30,
    "lastVisit": null,
    "type": 3,
    "notes": null,
    "enabled": true,
    "lastPurchaseTotal": null,
    "lastPurchaseScreens": null,
    "region.name": "New York, USA"
  },
  {
    "name": "No Name",
    "address": "32 Dr Martin Luther King Jr Blvd, New York, NY 10027, USA",
    "phone": null,
    "lat": "40.806886",
    "lng": "-73.943662",
    "newScreensEachDay": 40,
    "lastVisit": null,
    "type": 3,
    "notes": null,
    "enabled": true,
    "lastPurchaseTotal": null,
    "lastPurchaseScreens": null,
    "region.name": "New York, USA"
  },
  {
    "name": "Apple Rockingham Park",
    "address": "Salem, NH 03079, USA",
    "phone": null,
    "lat": "42.767389",
    "lng": "-71.232199",
    "newScreensEachDay": 35,
    "lastVisit": null,
    "type": 3,
    "notes": null,
    "enabled": true,
    "lastPurchaseTotal": null,
    "lastPurchaseScreens": null,
    "region.name": "New Hampshire, USA"
  },
  {
    "name": "Apple Pheasant Lane",
    "address": "310 Daniel Webster Hwy, Nashua, NH 03060, USA",
    "phone": null,
    "lat": "42.701502",
    "lng": "-71.437034",
    "newScreensEachDay": 25,
    "lastVisit": null,
    "type": 3,
    "notes": null,
    "enabled": true,
    "lastPurchaseTotal": null,
    "lastPurchaseScreens": null,
    "region.name": "New Hampshire, USA"
  },
  {
    "name": "Iphix Smartphone and Computer Repairs",
    "address": "3370 S Hualapai Way, Las Vegas, NV 89117, USA",
    "phone": null,
    "lat": "36.128429",
    "lng": "-115.314475",
    "newScreensEachDay": 34,
    "lastVisit": null,
    "type": 3,
    "notes": null,
    "enabled": true,
    "lastPurchaseTotal": null,
    "lastPurchaseScreens": null,
    "region.name": "Nevada, USA"
  },
  {
    "name": "Spring Street Mac - Apple Sales & Service Center",
    "address": "600 S Spring St, Los Angeles, CA 90014, USA",
    "phone": null,
    "lat": "34.045655",
    "lng": "-118.251014",
    "newScreensEachDay": 4,
    "lastVisit": null,
    "type": 3,
    "notes": null,
    "enabled": true,
    "lastPurchaseTotal": null,
    "lastPurchaseScreens": null,
    "region.name": "California, USA"
  },
  {
    "name": "Wireless Toyz #502",
    "address": "2405 E Tropicana Ave, Las Vegas, NV 89121, USA",
    "phone": null,
    "lat": "36.099738",
    "lng": "-115.118643",
    "newScreensEachDay": 40,
    "lastVisit": null,
    "type": 3,
    "notes": null,
    "enabled": true,
    "lastPurchaseTotal": null,
    "lastPurchaseScreens": null,
    "region.name": "Nevada, USA"
  },
  {
    "name": "Apple Christiana Mall",
    "address": "Newark, DE 19702, USA",
    "phone": null,
    "lat": "39.679285",
    "lng": "-75.653025",
    "newScreensEachDay": 24,
    "lastVisit": null,
    "type": 3,
    "notes": null,
    "enabled": true,
    "lastPurchaseTotal": null,
    "lastPurchaseScreens": null,
    "region.name": "Delaware, USA"
  }
]