{
  "type" : "FeatureCollection",
  "features" : [ {
    "geometry" : {
      "coordinates" : [ 34.9742700, 48.4399067 ],
      "type" : "Point"
    },
    "properties" : {
      "Google Maps URL" : "http://maps.google.com/?cid=13419381089463250287",
      "Location" : {
        "Address" : "а,, Криворізька вулиця, 60, Дніпро́, Дніпропетровська область, Ukraine",
        "Business Name" : "Старый Замок",
        "Country Code" : "UA",
        "Geo Coordinates" : {
          "Latitude" : "48.4399067",
          "Longitude" : "34.9742700"
        }
      },
      "Published" : "2017-12-26T06:36:27Z",
      "Title" : "Старый Замок",
      "Updated" : "2017-12-26T06:36:27Z"
    },
    "type" : "Feature"
  }, {
    "geometry" : {
      "coordinates" : [ -112.0738710, 33.4505340 ],
      "type" : "Point"
    },
    "properties" : {
      "Google Maps URL" : "http://maps.google.com/?cid=16176977041472206164",
      "Location" : {
        "Address" : "204 North Central Avenue, Phoenix, AZ 85004, United States",
        "Business Name" : "Mac I Am LLC - Apple iPhone Repair Phoenix",
        "Country Code" : "US",
        "Geo Coordinates" : {
          "Latitude" : "33.4505340",
          "Longitude" : "-112.0738710"
        }
      },
      "Published" : "2017-12-26T06:36:20Z",
      "Title" : "Mac I Am LLC - Apple iPhone Repair Phoenix",
      "Updated" : "2017-12-26T06:36:20Z"
    },
    "type" : "Feature"
  }, {
    "geometry" : {
      "coordinates" : [ -111.8811416, 33.5530206 ],
      "type" : "Point"
    },
    "properties" : {
      "Google Maps URL" : "http://maps.google.com/?cid=6832212529598530145",
      "Location" : {
        "Address" : "9261 East Vía de Ventura #105, Scottsdale, AZ 85258, United States",
        "Business Name" : "Nextech Repair",
        "Country Code" : "US",
        "Geo Coordinates" : {
          "Latitude" : "33.5530206",
          "Longitude" : "-111.8811416"
        }
      },
      "Published" : "2017-12-26T06:36:13Z",
      "Title" : "Nextech Repair",
      "Updated" : "2017-12-26T06:36:13Z"
    },
    "type" : "Feature"
  }, {
    "geometry" : {
      "coordinates" : [ -112.2671560, 33.5353720 ],
      "type" : "Point"
    },
    "properties" : {
      "Google Maps URL" : "http://maps.google.com/?cid=6223303192158954268",
      "Location" : {
        "Address" : "6800 North 95th Avenue Kiosk C5 Infront Aeropostle, Glendale, AZ 85305, United States",
        "Business Name" : "Mobil Mania Glendale",
        "Country Code" : "US",
        "Geo Coordinates" : {
          "Latitude" : "33.5353720",
          "Longitude" : "-112.2671560"
        }
      },
      "Published" : "2017-12-26T06:36:06Z",
      "Title" : "Mobil Mania Glendale",
      "Updated" : "2017-12-26T06:36:06Z"
    },
    "type" : "Feature"
  }, {
    "geometry" : {
      "coordinates" : [ -112.1231303, 33.6391350 ],
      "type" : "Point"
    },
    "properties" : {
      "Google Maps URL" : "http://maps.google.com/?cid=6917738636321852519",
      "Location" : {
        "Address" : "2949 West Bell Road #3, Phoenix, AZ 85053, United States",
        "Business Name" : "Hoda's Wireless Accessories 4 Less",
        "Country Code" : "US",
        "Geo Coordinates" : {
          "Latitude" : "33.6391350",
          "Longitude" : "-112.1231303"
        }
      },
      "Published" : "2017-12-26T06:35:59Z",
      "Title" : "Hoda's Wireless Accessories 4 Less",
      "Updated" : "2017-12-26T06:35:59Z"
    },
    "type" : "Feature"
  }, {
    "geometry" : {
      "coordinates" : [ -112.0986931, 33.6832571 ],
      "type" : "Point"
    },
    "properties" : {
      "Google Maps URL" : "http://maps.google.com/?cid=11002133978937356437",
      "Location" : {
        "Address" : "1855 West Deer Valley Road #106a, Phoenix, AZ 85027, United States",
        "Business Name" : "deer valley smart device repair",
        "Country Code" : "US",
        "Geo Coordinates" : {
          "Latitude" : "33.6832571",
          "Longitude" : "-112.0986931"
        }
      },
      "Published" : "2017-12-26T06:35:52Z",
      "Title" : "deer valley smart device repair",
      "Updated" : "2017-12-26T06:35:52Z"
    },
    "type" : "Feature"
  }, {
    "geometry" : {
      "coordinates" : [ -76.4626520, 37.0551290 ],
      "type" : "Point"
    },
    "properties" : {
      "Google Maps URL" : "http://maps.google.com/?cid=16248154425200522336",
      "Location" : {
        "Address" : "11002 Jefferson Avenue # B, Newport News, VA 23601, United States",
        "Business Name" : "Boo Boo Wireless",
        "Country Code" : "US",
        "Geo Coordinates" : {
          "Latitude" : "37.0551290",
          "Longitude" : "-76.4626520"
        }
      },
      "Published" : "2017-12-26T06:35:45Z",
      "Title" : "Boo Boo Wireless",
      "Updated" : "2017-12-26T06:35:45Z"
    },
    "type" : "Feature"
  }, {
    "geometry" : {
      "coordinates" : [ -76.2731300, 36.8190340 ],
      "type" : "Point"
    },
    "properties" : {
      "Google Maps URL" : "http://maps.google.com/?cid=667570262859294261",
      "Location" : {
        "Address" : "1333 Poindexter Street, Chesapeake, VA 23324, United States",
        "Business Name" : "Wireless 4 Less",
        "Country Code" : "US",
        "Geo Coordinates" : {
          "Latitude" : "36.8190340",
          "Longitude" : "-76.2731300"
        }
      },
      "Published" : "2017-12-26T06:35:38Z",
      "Title" : "Wireless 4 Less",
      "Updated" : "2017-12-26T06:35:38Z"
    },
    "type" : "Feature"
  }, {
    "geometry" : {
      "coordinates" : [ -76.0468214, 36.8424282 ],
      "type" : "Point"
    },
    "properties" : {
      "Google Maps URL" : "http://maps.google.com/?cid=14374510593194769752",
      "Location" : {
        "Address" : "2232 Virginia Beach Boulevard #102, Virginia Beach, VA 23454, United States",
        "Business Name" : "Cell Phone and Computer Repair",
        "Country Code" : "US",
        "Geo Coordinates" : {
          "Latitude" : "36.8424282",
          "Longitude" : "-76.0468214"
        }
      },
      "Published" : "2017-12-26T06:35:31Z",
      "Title" : "Cell Phone and Computer Repair",
      "Updated" : "2017-12-26T06:35:31Z"
    },
    "type" : "Feature"
  }, {
    "geometry" : {
      "coordinates" : [ -118.2659930, 33.9232460 ],
      "type" : "Point"
    },
    "properties" : {
      "Google Maps URL" : "http://maps.google.com/?cid=17724456513954700758",
      "Location" : {
        "Address" : "12003 South Avalon Boulevard, Los Angeles, CA 90061, United States",
        "Business Name" : "iphone and android phone fix",
        "Country Code" : "US",
        "Geo Coordinates" : {
          "Latitude" : "33.9232460",
          "Longitude" : "-118.2659930"
        }
      },
      "Published" : "2017-12-26T06:35:24Z",
      "Title" : "iphone and android phone fix",
      "Updated" : "2017-12-26T06:35:24Z"
    },
    "type" : "Feature"
  }, {
    "geometry" : {
      "coordinates" : [ -112.1002098, 33.5811884 ],
      "type" : "Point"
    },
    "properties" : {
      "Google Maps URL" : "http://maps.google.com/?cid=16346494685390264529",
      "Location" : {
        "Address" : "10430 North 19th Avenue Ste 9-11, Phoenix, AZ 85021, United States",
        "Business Name" : "Boost Mobile Premier Store",
        "Country Code" : "US",
        "Geo Coordinates" : {
          "Latitude" : "33.5811884",
          "Longitude" : "-112.1002098"
        }
      },
      "Published" : "2017-12-26T06:35:17Z",
      "Title" : "Boost Mobile Premier Store",
      "Updated" : "2017-12-26T06:35:17Z"
    },
    "type" : "Feature"
  }, {
    "geometry" : {
      "coordinates" : [ -118.2343921, 33.9605261 ],
      "type" : "Point"
    },
    "properties" : {
      "Google Maps URL" : "http://maps.google.com/?cid=1916069065428901569",
      "Location" : {
        "Address" : "2121 Firestone Boulevard, Los Angeles, CA 90002, United States",
        "Business Name" : "Cell World",
        "Country Code" : "US",
        "Geo Coordinates" : {
          "Latitude" : "33.9605261",
          "Longitude" : "-118.2343921"
        }
      },
      "Published" : "2017-12-26T06:35:10Z",
      "Title" : "Cell World",
      "Updated" : "2017-12-26T06:35:10Z"
    },
    "type" : "Feature"
  }, {
    "geometry" : {
      "coordinates" : [ -74.082683, 40.846825 ],
      "type" : "Point"
    },
    "properties" : {
      "Google Maps URL" : "http://maps.google.com/?q=194+Hackensack+St,+Wood-Ridge,+NJ+07075&ftid=0x89c2f8fe750b3a95:0x1f3de8b0301fa2c2",
      "Location" : {
        "Latitude" : "40.846825",
        "Longitude" : "-74.082683"
      },
      "Published" : "2017-12-26T06:35:03Z",
      "Title" : "194 Hackensack St, Wood-Ridge, NJ 07075",
      "Updated" : "2017-12-26T06:35:03Z"
    },
    "type" : "Feature"
  }, {
    "geometry" : {
      "coordinates" : [ -118.294235, 34.060928 ],
      "type" : "Point"
    },
    "properties" : {
      "Google Maps URL" : "http://maps.google.com/?q=34.0609281,-118.29423460000001",
      "Location" : {
        "Latitude" : "34.060928",
        "Longitude" : "-118.294235"
      },
      "Published" : "2017-12-26T06:34:56Z",
      "Title" : "34.0609281,-118.29423460000001",
      "Updated" : "2017-12-26T06:34:56Z"
    },
    "type" : "Feature"
  }, {
    "geometry" : {
      "coordinates" : [ -114.5653189, 34.7525627 ],
      "type" : "Point"
    },
    "properties" : {
      "Google Maps URL" : "http://maps.google.com/?cid=8174866148124235850",
      "Location" : {
        "Address" : "142150 Interstate 40, Needles, CA 92363, United States",
        "Business Name" : "Agricultural Inspection, Needles",
        "Country Code" : "US",
        "Geo Coordinates" : {
          "Latitude" : "34.7525627",
          "Longitude" : "-114.5653189"
        }
      },
      "Published" : "2017-12-26T06:34:49Z",
      "Title" : "Agricultural Inspection, Needles",
      "Updated" : "2017-12-26T06:34:49Z"
    },
    "type" : "Feature"
  }, {
    "geometry" : {
      "coordinates" : [ -111.9271907, 33.6130319 ],
      "type" : "Point"
    },
    "properties" : {
      "Google Maps URL" : "http://maps.google.com/?cid=494521165632863236",
      "Location" : {
        "Address" : "13802 North Scottsdale Road Ste 175, Scottsdale, AZ 85254, United States",
        "Business Name" : "Experimac Scottsdale",
        "Country Code" : "US",
        "Geo Coordinates" : {
          "Latitude" : "33.6130319",
          "Longitude" : "-111.9271907"
        }
      },
      "Published" : "2017-12-26T06:34:42Z",
      "Title" : "Experimac Scottsdale",
      "Updated" : "2017-12-26T06:34:42Z"
    },
    "type" : "Feature"
  }, {
    "geometry" : {
      "coordinates" : [ -111.9286273, 33.6381664 ],
      "type" : "Point"
    },
    "properties" : {
      "Google Maps URL" : "http://maps.google.com/?cid=16090650427252107674",
      "Location" : {
        "Address" : "7077 E Bell RD, 108, Scottsdale, AZ 85254, United States",
        "Business Name" : "iRepairPlus - Scottsdale",
        "Country Code" : "US",
        "Geo Coordinates" : {
          "Latitude" : "33.6381664",
          "Longitude" : "-111.9286273"
        }
      },
      "Published" : "2017-12-26T06:34:35Z",
      "Title" : "iRepairPlus - Scottsdale",
      "Updated" : "2017-12-26T06:34:35Z"
    },
    "type" : "Feature"
  }, {
    "geometry" : {
      "coordinates" : [ -111.9604350, 33.6397610 ],
      "type" : "Point"
    },
    "properties" : {
      "Google Maps URL" : "http://maps.google.com/?cid=8355728518599923746",
      "Location" : {
        "Address" : "5555 East Bell Road #24, Scottsdale, AZ 85254, United States",
        "Business Name" : "Quick Mobile Repair - iPhone Repair",
        "Country Code" : "US",
        "Geo Coordinates" : {
          "Latitude" : "33.6397610",
          "Longitude" : "-111.9604350"
        }
      },
      "Published" : "2017-12-26T06:34:28Z",
      "Title" : "Quick Mobile Repair - iPhone Repair",
      "Updated" : "2017-12-26T06:34:28Z"
    },
    "type" : "Feature"
  }, {
    "geometry" : {
      "coordinates" : [ -112.0103654, 33.6402656 ],
      "type" : "Point"
    },
    "properties" : {
      "Google Maps URL" : "http://maps.google.com/?cid=15109901716623807790",
      "Location" : {
        "Address" : "3329 East Bell Road #14a, Phoenix, AZ 85032, United States",
        "Business Name" : "Sun Cellular Inc",
        "Country Code" : "US",
        "Geo Coordinates" : {
          "Latitude" : "33.6402656",
          "Longitude" : "-112.0103654"
        }
      },
      "Published" : "2017-12-26T06:34:21Z",
      "Title" : "Sun Cellular Inc",
      "Updated" : "2017-12-26T06:34:21Z"
    },
    "type" : "Feature"
  }, {
    "geometry" : {
      "coordinates" : [ -112.1879300, 33.6704380 ],
      "type" : "Point"
    },
    "properties" : {
      "Google Maps URL" : "http://maps.google.com/?cid=13995279029914173103",
      "Location" : {
        "Address" : "20280 North 59th Avenue a114, Glendale, AZ 85308, United States",
        "Business Name" : "Mobile Matrix Repair",
        "Country Code" : "US",
        "Geo Coordinates" : {
          "Latitude" : "33.6704380",
          "Longitude" : "-112.1879300"
        }
      },
      "Published" : "2017-12-26T06:34:14Z",
      "Title" : "Mobile Matrix Repair",
      "Updated" : "2017-12-26T06:34:14Z"
    },
    "type" : "Feature"
  }, {
    "geometry" : {
      "coordinates" : [ -112.2710969, 33.4632879 ],
      "type" : "Point"
    },
    "properties" : {
      "Google Maps URL" : "http://maps.google.com/?cid=1415795855571358238",
      "Location" : {
        "Address" : "9897 W. McDowell Rd., Suite 740-H, Tolleson, AZ 85353, United States",
        "Business Name" : "CPR Cell Phone Repair Tolleson",
        "Country Code" : "US",
        "Geo Coordinates" : {
          "Latitude" : "33.4632879",
          "Longitude" : "-112.2710969"
        }
      },
      "Published" : "2017-12-26T06:34:07Z",
      "Title" : "CPR Cell Phone Repair Tolleson",
      "Updated" : "2017-12-26T06:34:07Z"
    },
    "type" : "Feature"
  }, {
    "geometry" : {
      "coordinates" : [ -73.8079051, 40.7151862 ],
      "type" : "Point"
    },
    "properties" : {
      "Google Maps URL" : "http://maps.google.com/?cid=9368610375441182944",
      "Location" : {
        "Address" : "8316 Parsons Boulevard, Jamaica, NY 11432, United States",
        "Business Name" : "Maia Systems",
        "Country Code" : "US",
        "Geo Coordinates" : {
          "Latitude" : "40.7151862",
          "Longitude" : "-73.8079051"
        }
      },
      "Published" : "2017-12-26T06:34:00Z",
      "Title" : "Maia Systems",
      "Updated" : "2017-12-26T06:34:00Z"
    },
    "type" : "Feature"
  }, {
    "geometry" : {
      "coordinates" : [ -73.9197210, 40.7582926 ],
      "type" : "Point"
    },
    "properties" : {
      "Google Maps URL" : "http://maps.google.com/?cid=14912761566069516109",
      "Location" : {
        "Address" : "32-30 Steinway Street, Astoria, NY 11103, United States",
        "Business Name" : "Computer Phone Repair",
        "Country Code" : "US",
        "Geo Coordinates" : {
          "Latitude" : "40.7582926",
          "Longitude" : "-73.9197210"
        }
      },
      "Published" : "2017-12-26T06:33:53Z",
      "Title" : "Computer Phone Repair",
      "Updated" : "2017-12-26T06:33:53Z"
    },
    "type" : "Feature"
  }, {
    "geometry" : {
      "coordinates" : [ -73.912026, 40.767751 ],
      "type" : "Point"
    },
    "properties" : {
      "Google Maps URL" : "http://maps.google.com/?q=40.767751,-73.912026",
      "Location" : {
        "Latitude" : "40.767751",
        "Longitude" : "-73.912026"
      },
      "Published" : "2017-12-26T06:33:46Z",
      "Title" : "40.767751,-73.912026",
      "Updated" : "2017-12-26T06:33:46Z"
    },
    "type" : "Feature"
  }, {
    "geometry" : {
      "coordinates" : [ -73.9118482, 40.7754384 ],
      "type" : "Point"
    },
    "properties" : {
      "Google Maps URL" : "http://maps.google.com/?cid=1436723053521381043",
      "Location" : {
        "Address" : "2236A 31st Street, Astoria, NY 11105, United States",
        "Business Name" : "Computer Smartphone Repair",
        "Country Code" : "US",
        "Geo Coordinates" : {
          "Latitude" : "40.7754384",
          "Longitude" : "-73.9118482"
        }
      },
      "Published" : "2017-12-26T06:33:39Z",
      "Title" : "Computer Smartphone Repair",
      "Updated" : "2017-12-26T06:33:39Z"
    },
    "type" : "Feature"
  }, {
    "geometry" : {
      "coordinates" : [ -111.9025640, 33.4217740 ],
      "type" : "Point"
    },
    "properties" : {
      "Google Maps URL" : "http://maps.google.com/?cid=5711925038088207603",
      "Location" : {
        "Address" : "1949 East University Drive, Tempe, AZ 85281, United States",
        "Business Name" : "Rapid iPhone Repair",
        "Country Code" : "US",
        "Geo Coordinates" : {
          "Latitude" : "33.4217740",
          "Longitude" : "-111.9025640"
        }
      },
      "Published" : "2017-12-26T06:33:32Z",
      "Title" : "Rapid iPhone Repair",
      "Updated" : "2017-12-26T06:33:32Z"
    },
    "type" : "Feature"
  }, {
    "geometry" : {
      "coordinates" : [ -111.8403649, 33.4199328 ],
      "type" : "Point"
    },
    "properties" : {
      "Google Maps URL" : "http://maps.google.com/?cid=1149778963545285023",
      "Location" : {
        "Address" : "244 North Country Club Drive #210, Mesa, AZ 85201, United States",
        "Business Name" : "Smart Repairs AZ - Cellphone, iPad, and iPhone Screen repair",
        "Country Code" : "US",
        "Geo Coordinates" : {
          "Latitude" : "33.4199328",
          "Longitude" : "-111.8403649"
        }
      },
      "Published" : "2017-12-26T06:33:25Z",
      "Title" : "Smart Repairs AZ - Cellphone, iPad, and iPhone Screen repair",
      "Updated" : "2017-12-26T06:33:25Z"
    },
    "type" : "Feature"
  }, {
    "geometry" : {
      "coordinates" : [ -73.941876, 40.679892 ],
      "type" : "Point"
    },
    "properties" : {
      "Google Maps URL" : "http://maps.google.com/?q=40.679891999999995,-73.941876",
      "Location" : {
        "Latitude" : "40.679892",
        "Longitude" : "-73.941876"
      },
      "Published" : "2017-12-26T06:33:18Z",
      "Title" : "40.679891999999995,-73.941876",
      "Updated" : "2017-12-26T06:33:18Z"
    },
    "type" : "Feature"
  }, {
    "geometry" : {
      "coordinates" : [ -73.8195936, 40.6882076 ],
      "type" : "Point"
    },
    "properties" : {
      "Google Maps URL" : "http://maps.google.com/?cid=3483084166630286753",
      "Location" : {
        "Address" : "124-17 Liberty Avenue, South Richmond Hill, NY 11419, United States",
        "Business Name" : "cellphone repairs",
        "Country Code" : "US",
        "Geo Coordinates" : {
          "Latitude" : "40.6882076",
          "Longitude" : "-73.8195936"
        }
      },
      "Published" : "2017-12-26T06:33:11Z",
      "Title" : "cellphone repairs",
      "Updated" : "2017-12-26T06:33:11Z"
    },
    "type" : "Feature"
  }, {
    "geometry" : {
      "coordinates" : [ -112.1296255, 33.4939492 ],
      "type" : "Point"
    },
    "properties" : {
      "Google Maps URL" : "http://maps.google.com/?cid=7836733020528364192",
      "Location" : {
        "Address" : "3223 West Indian School Road, Phoenix, AZ 85017, United States",
        "Business Name" : "cell phone repair / cricket",
        "Country Code" : "US",
        "Geo Coordinates" : {
          "Latitude" : "33.4939492",
          "Longitude" : "-112.1296255"
        }
      },
      "Published" : "2017-12-26T06:33:04Z",
      "Title" : "cell phone repair / cricket",
      "Updated" : "2017-12-26T06:33:04Z"
    },
    "type" : "Feature"
  }, {
    "geometry" : {
      "coordinates" : [ -112.1176388, 33.4958870 ],
      "type" : "Point"
    },
    "properties" : {
      "Google Maps URL" : "http://maps.google.com/?cid=16176959848279627408",
      "Location" : {
        "Address" : "4128 North 27th Avenue, Phoenix, AZ 85017, United States",
        "Business Name" : "Wireless Toyz",
        "Country Code" : "US",
        "Geo Coordinates" : {
          "Latitude" : "33.4958870",
          "Longitude" : "-112.1176388"
        }
      },
      "Published" : "2017-12-26T06:32:57Z",
      "Title" : "Wireless Toyz",
      "Updated" : "2017-12-26T06:32:57Z"
    },
    "type" : "Feature"
  }, {
    "geometry" : {
      "coordinates" : [ -112.1884250, 33.4664680 ],
      "type" : "Point"
    },
    "properties" : {
      "Google Maps URL" : "http://maps.google.com/?cid=9528797506926494326",
      "Location" : {
        "Address" : "5930 West McDowell Road, Phoenix, AZ 85035, United States",
        "Business Name" : "ANJ Logistics Cellphone And Laptop Repair",
        "Country Code" : "US",
        "Geo Coordinates" : {
          "Latitude" : "33.4664680",
          "Longitude" : "-112.1884250"
        }
      },
      "Published" : "2017-12-26T06:32:50Z",
      "Title" : "ANJ Logistics Cellphone And Laptop Repair",
      "Updated" : "2017-12-26T06:32:50Z"
    },
    "type" : "Feature"
  }, {
    "geometry" : {
      "coordinates" : [ -112.1710797, 33.4669114 ],
      "type" : "Point"
    },
    "properties" : {
      "Google Maps URL" : "http://maps.google.com/?cid=2738705708987676723",
      "Location" : {
        "Address" : "5138 West McDowell Road, Phoenix, AZ 85035, United States",
        "Business Name" : "Boost Mobile Store by Caseta Express",
        "Country Code" : "US",
        "Geo Coordinates" : {
          "Latitude" : "33.4669114",
          "Longitude" : "-112.1710797"
        }
      },
      "Published" : "2017-12-26T06:32:43Z",
      "Title" : "Boost Mobile Store by Caseta Express",
      "Updated" : "2017-12-26T06:32:43Z"
    },
    "type" : "Feature"
  }, {
    "geometry" : {
      "coordinates" : [ -111.9239440, 33.6237400 ],
      "type" : "Point"
    },
    "properties" : {
      "Google Maps URL" : "http://maps.google.com/?cid=878276315364052032",
      "Location" : {
        "Address" : "15147 N Scottsdale Rd, H-130, Scottsdale, AZ 85254, United States",
        "Business Name" : "All Mobile Matters",
        "Country Code" : "US",
        "Geo Coordinates" : {
          "Latitude" : "33.6237400",
          "Longitude" : "-111.9239440"
        }
      },
      "Published" : "2017-12-26T06:32:36Z",
      "Title" : "All Mobile Matters",
      "Updated" : "2017-12-26T06:32:36Z"
    },
    "type" : "Feature"
  }, {
    "geometry" : {
      "coordinates" : [ -112.2909887, 33.4212916 ],
      "type" : "Point"
    },
    "properties" : {
      "Google Maps URL" : "http://maps.google.com/?cid=4008001964483032263",
      "Location" : {
        "Address" : "10730 West Lower Buckeye Road # 102, Avondale, AZ 85323, United States",
        "Business Name" : "Ana's Cellular",
        "Country Code" : "US",
        "Geo Coordinates" : {
          "Latitude" : "33.4212916",
          "Longitude" : "-112.2909887"
        }
      },
      "Published" : "2017-12-26T06:32:29Z",
      "Title" : "Ana's Cellular",
      "Updated" : "2017-12-26T06:32:29Z"
    },
    "type" : "Feature"
  }, {
    "geometry" : {
      "coordinates" : [ -112.2663092, 33.5075931 ],
      "type" : "Point"
    },
    "properties" : {
      "Google Maps URL" : "http://maps.google.com/?cid=8386200473123524363",
      "Location" : {
        "Address" : "9611 West Camelback Road, Phoenix, AZ 85037, United States",
        "Business Name" : "Phone Depot",
        "Country Code" : "US",
        "Geo Coordinates" : {
          "Latitude" : "33.5075931",
          "Longitude" : "-112.2663092"
        }
      },
      "Published" : "2017-12-26T06:32:22Z",
      "Title" : "Phone Depot",
      "Updated" : "2017-12-26T06:32:22Z"
    },
    "type" : "Feature"
  }, {
    "geometry" : {
      "coordinates" : [ -112.2257157, 33.4776756 ],
      "type" : "Point"
    },
    "properties" : {
      "Google Maps URL" : "http://maps.google.com/?cid=5290188898956106521",
      "Location" : {
        "Address" : "7611 West Thomas Road, Phoenix, AZ 85033, United States",
        "Business Name" : "iPhixation",
        "Country Code" : "US",
        "Geo Coordinates" : {
          "Latitude" : "33.4776756",
          "Longitude" : "-112.2257157"
        }
      },
      "Published" : "2017-12-26T06:32:15Z",
      "Title" : "iPhixation",
      "Updated" : "2017-12-26T06:32:15Z"
    },
    "type" : "Feature"
  }, {
    "geometry" : {
      "coordinates" : [ -112.2038004, 33.4798407 ],
      "type" : "Point"
    },
    "properties" : {
      "Google Maps URL" : "http://maps.google.com/?cid=768178519518618445",
      "Location" : {
        "Address" : "6701 West Thomas Road, Phoenix, AZ 85033, United States",
        "Business Name" : "MetroPCS Authorized Dealer",
        "Country Code" : "US",
        "Geo Coordinates" : {
          "Latitude" : "33.4798407",
          "Longitude" : "-112.2038004"
        }
      },
      "Published" : "2017-12-26T06:32:08Z",
      "Title" : "MetroPCS Authorized Dealer",
      "Updated" : "2017-12-26T06:32:08Z"
    },
    "type" : "Feature"
  }, {
    "geometry" : {
      "coordinates" : [ -117.6694269, 34.1004650 ],
      "type" : "Point"
    },
    "properties" : {
      "Google Maps URL" : "http://maps.google.com/?cid=18336771820923176057",
      "Location" : {
        "Address" : "560 North Mountain Avenue H, Upland, CA 91786, United States",
        "Business Name" : "All Electronics",
        "Country Code" : "US",
        "Geo Coordinates" : {
          "Latitude" : "34.1004650",
          "Longitude" : "-117.6694269"
        }
      },
      "Published" : "2017-12-26T06:32:01Z",
      "Title" : "All Electronics",
      "Updated" : "2017-12-26T06:32:01Z"
    },
    "type" : "Feature"
  }, {
    "geometry" : {
      "coordinates" : [ -116.9843640, 32.8491840 ],
      "type" : "Point"
    },
    "properties" : {
      "Google Maps URL" : "http://maps.google.com/?cid=11241756388003662685",
      "Location" : {
        "Address" : "9470 Cuyamaca Street #150, Santee, CA 92071, United States",
        "Business Name" : "FreeTouch Wireless",
        "Country Code" : "US",
        "Geo Coordinates" : {
          "Latitude" : "32.8491840",
          "Longitude" : "-116.9843640"
        }
      },
      "Published" : "2017-12-26T06:31:54Z",
      "Title" : "FreeTouch Wireless",
      "Updated" : "2017-12-26T06:31:54Z"
    },
    "type" : "Feature"
  }, {
    "geometry" : {
      "coordinates" : [ -118.490928, 34.011350 ],
      "type" : "Point"
    },
    "properties" : {
      "Google Maps URL" : "http://maps.google.com/?q=34.011350400000005,-118.49092809999999",
      "Location" : {
        "Latitude" : "34.011350",
        "Longitude" : "-118.490928"
      },
      "Published" : "2017-12-26T06:31:47Z",
      "Title" : "34.011350400000005,-118.49092809999999",
      "Updated" : "2017-12-26T06:31:47Z"
    },
    "type" : "Feature"
  }, {
    "geometry" : {
      "coordinates" : [ -118.3871181, 34.0555413 ],
      "type" : "Point"
    },
    "properties" : {
      "Google Maps URL" : "http://maps.google.com/?cid=7181478584373346214",
      "Location" : {
        "Address" : "8943 West Pico Boulevard, Los Angeles, CA 90035, United States",
        "Business Name" : "La Iphone Repair",
        "Country Code" : "US",
        "Geo Coordinates" : {
          "Latitude" : "34.0555413",
          "Longitude" : "-118.3871181"
        }
      },
      "Published" : "2017-12-26T06:31:43Z",
      "Title" : "La Iphone Repair",
      "Updated" : "2017-12-26T06:31:43Z"
    },
    "type" : "Feature"
  }, {
    "geometry" : {
      "coordinates" : [ -118.1197256, 34.1462411 ],
      "type" : "Point"
    },
    "properties" : {
      "Google Maps URL" : "http://maps.google.com/?cid=11266172025669165413",
      "Location" : {
        "Address" : "1487 East Colorado Boulevard, Pasadena, CA 91106, United States",
        "Business Name" : "CPR Cell Phone Repair Pasadena",
        "Country Code" : "US",
        "Geo Coordinates" : {
          "Latitude" : "34.1462411",
          "Longitude" : "-118.1197256"
        }
      },
      "Published" : "2017-12-26T06:31:37Z",
      "Title" : "CPR Cell Phone Repair Pasadena",
      "Updated" : "2017-12-26T06:31:37Z"
    },
    "type" : "Feature"
  }, {
    "geometry" : {
      "coordinates" : [ -118.1810832, 34.0557588 ],
      "type" : "Point"
    },
    "properties" : {
      "Google Maps URL" : "http://maps.google.com/?cid=1622064281046504254",
      "Location" : {
        "Address" : "3866 City Terrace Drive, Los Angeles, CA 90063, United States",
        "Business Name" : "Isa's Wireless Solutions /Boost Mobile Authorized Dealer",
        "Country Code" : "US",
        "Geo Coordinates" : {
          "Latitude" : "34.0557588",
          "Longitude" : "-118.1810832"
        }
      },
      "Published" : "2017-12-26T06:31:28Z",
      "Title" : "Isa's Wireless Solutions /Boost Mobile Authorized Dealer",
      "Updated" : "2017-12-26T06:31:28Z"
    },
    "type" : "Feature"
  }, {
    "geometry" : {
      "coordinates" : [ -117.3598100, 33.1726730 ],
      "type" : "Point"
    },
    "properties" : {
      "Google Maps URL" : "http://maps.google.com/?cid=15216019160849994210",
      "Location" : {
        "Address" : "1930 South Coast Highway Suite 101, Oceanside, CA 92054, United States",
        "Business Name" : "A to Z Wireless Cellphone & Tablet Repair",
        "Country Code" : "US",
        "Geo Coordinates" : {
          "Latitude" : "33.1726730",
          "Longitude" : "-117.3598100"
        }
      },
      "Published" : "2017-12-26T06:31:13Z",
      "Title" : "A to Z Wireless Cellphone & Tablet Repair",
      "Updated" : "2017-12-26T06:31:13Z"
    },
    "type" : "Feature"
  }, {
    "geometry" : {
      "coordinates" : [ -117.3493329, 33.1615698 ],
      "type" : "Point"
    },
    "properties" : {
      "Google Maps URL" : "http://maps.google.com/?cid=3260790985048554935",
      "Location" : {
        "Address" : "2835 Roosevelt Street, Carlsbad, CA 92008, United States",
        "Business Name" : "Phone Phix",
        "Country Code" : "US",
        "Geo Coordinates" : {
          "Latitude" : "33.1615698",
          "Longitude" : "-117.3493329"
        }
      },
      "Published" : "2017-12-26T06:31:05Z",
      "Title" : "Phone Phix",
      "Updated" : "2017-12-26T06:31:05Z"
    },
    "type" : "Feature"
  }, {
    "geometry" : {
      "coordinates" : [ -117.3467194, 33.1648133 ],
      "type" : "Point"
    },
    "properties" : {
      "Google Maps URL" : "http://maps.google.com/?cid=4487342438832329375",
      "Location" : {
        "Address" : "935 Laguna Drive, Carlsbad, CA 92008, United States",
        "Business Name" : "Phone Mav - Mobile iPhone & iPad Repair",
        "Country Code" : "US",
        "Geo Coordinates" : {
          "Latitude" : "33.1648133",
          "Longitude" : "-117.3467194"
        }
      },
      "Published" : "2017-12-26T06:30:58Z",
      "Title" : "Phone Mav - Mobile iPhone & iPad Repair",
      "Updated" : "2017-12-26T06:30:58Z"
    },
    "type" : "Feature"
  }, {
    "geometry" : {
      "coordinates" : [ -117.072051, 32.985956 ],
      "type" : "Point"
    },
    "properties" : {
      "Google Maps URL" : "http://maps.google.com/?q=12104+Waverly+Downs+Ln,+San+Diego,+CA+92128&ftid=0x80dbfa075fe133bf:0x4adf81aefbb73633",
      "Location" : {
        "Latitude" : "32.985956",
        "Longitude" : "-117.072051"
      },
      "Published" : "2017-12-26T06:30:51Z",
      "Title" : "12104 Waverly Downs Ln, San Diego, CA 92128",
      "Updated" : "2017-12-26T06:30:51Z"
    },
    "type" : "Feature"
  }, {
    "geometry" : {
      "coordinates" : [ -80.2274392, 26.0892132 ],
      "type" : "Point"
    },
    "properties" : {
      "Google Maps URL" : "http://maps.google.com/?cid=9371895978300544961",
      "Location" : {
        "Address" : "2600 Davie Road, Davie, FL 33314, United States",
        "Business Name" : "Nexus Shooting",
        "Country Code" : "US",
        "Geo Coordinates" : {
          "Latitude" : "26.0892132",
          "Longitude" : "-80.2274392"
        }
      },
      "Published" : "2017-12-26T06:30:44Z",
      "Title" : "Nexus Shooting",
      "Updated" : "2017-12-26T06:30:44Z"
    },
    "type" : "Feature"
  }, {
    "geometry" : {
      "coordinates" : [ -80.351896, 26.128236 ],
      "type" : "Point"
    },
    "properties" : {
      "Google Maps URL" : "http://maps.google.com/?q=26.1282364,-80.351896",
      "Location" : {
        "Latitude" : "26.128236",
        "Longitude" : "-80.351896"
      },
      "Published" : "2017-12-26T06:30:37Z",
      "Title" : "26.1282364,-80.351896",
      "Updated" : "2017-12-26T06:30:37Z"
    },
    "type" : "Feature"
  }, {
    "geometry" : {
      "coordinates" : [ -76.3447810, 36.7964250 ],
      "type" : "Point"
    },
    "properties" : {
      "Google Maps URL" : "http://maps.google.com/?cid=15783133520240213012",
      "Location" : {
        "Address" : "3018 Victory Boulevard c, Portsmouth, VA 23702, United States",
        "Business Name" : "Victory Computer Repair",
        "Country Code" : "US",
        "Geo Coordinates" : {
          "Latitude" : "36.7964250",
          "Longitude" : "-76.3447810"
        }
      },
      "Published" : "2017-12-26T06:30:30Z",
      "Title" : "Victory Computer Repair",
      "Updated" : "2017-12-26T06:30:30Z"
    },
    "type" : "Feature"
  }, {
    "geometry" : {
      "coordinates" : [ -94.980948, 29.794026 ],
      "type" : "Point"
    },
    "properties" : {
      "Google Maps URL" : "http://maps.google.com/?q=6331+Garth+Rd,+Baytown,+TX+77521&ftid=0x863f5956a7953999:0x2dbf35e8b047a45b",
      "Location" : {
        "Latitude" : "29.794026",
        "Longitude" : "-94.980948"
      },
      "Published" : "2017-12-26T06:30:23Z",
      "Title" : "6331 Garth Rd, Baytown, TX 77521",
      "Updated" : "2017-12-26T06:30:23Z"
    },
    "type" : "Feature"
  }, {
    "geometry" : {
      "coordinates" : [ -95.281341, 29.563393 ],
      "type" : "Point"
    },
    "properties" : {
      "Google Maps URL" : "http://maps.google.com/?q=3536+Broadway+St,+Pearland,+TX+77581&ftid=0x8640911736d57983:0x659cbde9e1afaf31",
      "Location" : {
        "Latitude" : "29.563393",
        "Longitude" : "-95.281341"
      },
      "Published" : "2017-12-26T06:30:16Z",
      "Title" : "3536 Broadway St, Pearland, TX 77581",
      "Updated" : "2017-12-26T06:30:16Z"
    },
    "type" : "Feature"
  }, {
    "geometry" : {
      "coordinates" : [ -95.382134, 29.745024 ],
      "type" : "Point"
    },
    "properties" : {
      "Google Maps URL" : "http://maps.google.com/?q=29.745024,-95.3821337",
      "Location" : {
        "Latitude" : "29.745024",
        "Longitude" : "-95.382134"
      },
      "Published" : "2017-12-26T06:30:09Z",
      "Title" : "29.745024,-95.3821337",
      "Updated" : "2017-12-26T06:30:09Z"
    },
    "type" : "Feature"
  }, {
    "geometry" : {
      "coordinates" : [ -95.3822607, 29.8027446 ],
      "type" : "Point"
    },
    "properties" : {
      "Google Maps URL" : "http://maps.google.com/?cid=14480492772882977715",
      "Location" : {
        "Address" : "1777 Airline Drive STE. E, Houston, TX 77009, United States",
        "Business Name" : "FantasticFitClub",
        "Country Code" : "US",
        "Geo Coordinates" : {
          "Latitude" : "29.8027446",
          "Longitude" : "-95.3822607"
        }
      },
      "Published" : "2017-12-26T06:30:02Z",
      "Title" : "FantasticFitClub",
      "Updated" : "2017-12-26T06:30:02Z"
    },
    "type" : "Feature"
  }, {
    "geometry" : {
      "coordinates" : [ -95.518272, 29.854328 ],
      "type" : "Point"
    },
    "properties" : {
      "Google Maps URL" : "http://maps.google.com/?q=29.854328199999998,-95.5182719",
      "Location" : {
        "Latitude" : "29.854328",
        "Longitude" : "-95.518272"
      },
      "Published" : "2017-12-26T06:29:55Z",
      "Title" : "29.854328199999998,-95.5182719",
      "Updated" : "2017-12-26T06:29:55Z"
    },
    "type" : "Feature"
  }, {
    "geometry" : {
      "coordinates" : [ -73.936779, 40.802153 ],
      "type" : "Point"
    },
    "properties" : {
      "Google Maps URL" : "http://maps.google.com/?q=40.8021525,-73.9367793",
      "Location" : {
        "Latitude" : "40.802153",
        "Longitude" : "-73.936779"
      },
      "Published" : "2017-12-26T06:29:48Z",
      "Title" : "40.8021525,-73.9367793",
      "Updated" : "2017-12-26T06:29:48Z"
    },
    "type" : "Feature"
  }, {
    "geometry" : {
      "coordinates" : [ -80.3181090, 25.8681948 ],
      "type" : "Point"
    },
    "properties" : {
      "Google Maps URL" : "http://maps.google.com/?cid=15872414328190230344",
      "Location" : {
        "Address" : "1675 West 49th Street, Hialeah, FL 33012, United States",
        "Business Name" : "Westland Mall",
        "Country Code" : "US",
        "Geo Coordinates" : {
          "Latitude" : "25.8681948",
          "Longitude" : "-80.3181090"
        }
      },
      "Published" : "2017-12-26T06:29:41Z",
      "Title" : "Westland Mall",
      "Updated" : "2017-12-26T06:29:41Z"
    },
    "type" : "Feature"
  }, {
    "geometry" : {
      "coordinates" : [ -80.3808011, 25.7870262 ],
      "type" : "Point"
    },
    "properties" : {
      "Google Maps URL" : "http://maps.google.com/?cid=2009265545215000160",
      "Location" : {
        "Address" : "11401 Northwest 12th Street, Miami, FL 33172, United States",
        "Business Name" : "Dolphin Mall",
        "Country Code" : "US",
        "Geo Coordinates" : {
          "Latitude" : "25.7870262",
          "Longitude" : "-80.3808011"
        }
      },
      "Published" : "2017-12-26T06:29:34Z",
      "Title" : "Dolphin Mall",
      "Updated" : "2017-12-26T06:29:34Z"
    },
    "type" : "Feature"
  }, {
    "geometry" : {
      "coordinates" : [ -80.3649600, 25.7866710 ],
      "type" : "Point"
    },
    "properties" : {
      "Google Maps URL" : "http://maps.google.com/?cid=18236407723371036282",
      "Location" : {
        "Address" : "1455 Northwest 107th Avenue, Doral, FL 33172, United States",
        "Business Name" : "Miami International Mall",
        "Country Code" : "US",
        "Geo Coordinates" : {
          "Latitude" : "25.7866710",
          "Longitude" : "-80.3649600"
        }
      },
      "Published" : "2017-12-26T06:29:27Z",
      "Title" : "Miami International Mall",
      "Updated" : "2017-12-26T06:29:27Z"
    },
    "type" : "Feature"
  }, {
    "geometry" : {
      "coordinates" : [ -80.3650444, 25.6854837 ],
      "type" : "Point"
    },
    "properties" : {
      "Google Maps URL" : "http://maps.google.com/?cid=13715369464002892229",
      "Location" : {
        "Address" : "10600 North Kendall Drive, Miami, FL 33176, United States",
        "Business Name" : "Kendall Mall",
        "Country Code" : "US",
        "Geo Coordinates" : {
          "Latitude" : "25.6854837",
          "Longitude" : "-80.3650444"
        }
      },
      "Published" : "2017-12-26T06:29:20Z",
      "Title" : "Kendall Mall",
      "Updated" : "2017-12-26T06:29:20Z"
    },
    "type" : "Feature"
  }, {
    "geometry" : {
      "coordinates" : [ -80.1358276, 25.7906099 ],
      "type" : "Point"
    },
    "properties" : {
      "Google Maps URL" : "http://maps.google.com/?cid=7765158148087646247",
      "Location" : {
        "Address" : "Lincoln Road, Miami Beach, FL 33139, United States",
        "Business Name" : "Lincoln Road Mall",
        "Country Code" : "US",
        "Geo Coordinates" : {
          "Latitude" : "25.7906099",
          "Longitude" : "-80.1358276"
        }
      },
      "Published" : "2017-12-26T06:29:13Z",
      "Title" : "Lincoln Road Mall",
      "Updated" : "2017-12-26T06:29:13Z"
    },
    "type" : "Feature"
  }, {
    "geometry" : {
      "coordinates" : [ -73.9472400, 40.7250980 ],
      "type" : "Point"
    },
    "properties" : {
      "Google Maps URL" : "http://maps.google.com/?cid=18423110349428752320",
      "Location" : {
        "Address" : "151B Nassau Avenue, Brooklyn, NY 11222, United States",
        "Business Name" : "B-Z John Computer & Electronics",
        "Country Code" : "US",
        "Geo Coordinates" : {
          "Latitude" : "40.7250980",
          "Longitude" : "-73.9472400"
        }
      },
      "Published" : "2017-12-26T06:29:06Z",
      "Title" : "B-Z John Computer & Electronics",
      "Updated" : "2017-12-26T06:29:06Z"
    },
    "type" : "Feature"
  }, {
    "geometry" : {
      "coordinates" : [ -73.8743883, 40.7488331 ],
      "type" : "Point"
    },
    "properties" : {
      "Google Maps URL" : "http://maps.google.com/?cid=11726589161673489713",
      "Location" : {
        "Address" : "92-05 Roosevelt Avenue, Jackson Heights, NY 11372, United States",
        "Business Name" : "ipear fix wirelees",
        "Country Code" : "US",
        "Geo Coordinates" : {
          "Latitude" : "40.7488331",
          "Longitude" : "-73.8743883"
        }
      },
      "Published" : "2017-12-26T06:28:59Z",
      "Title" : "ipear fix wirelees",
      "Updated" : "2017-12-26T06:28:59Z"
    },
    "type" : "Feature"
  }, {
    "geometry" : {
      "coordinates" : [ -118.489604, 34.025399 ],
      "type" : "Point"
    },
    "properties" : {
      "Google Maps URL" : "http://maps.google.com/?q=1212+Euclid+St,+Santa+Monica,+CA+90404&ftid=0x80c2a4ca5e61a7e5:0xc79ced81e871bc08",
      "Location" : {
        "Latitude" : "34.025399",
        "Longitude" : "-118.489604"
      },
      "Published" : "2017-12-26T06:28:52Z",
      "Title" : "1212 Euclid St, Santa Monica, CA 90404",
      "Updated" : "2017-12-26T06:28:52Z"
    },
    "type" : "Feature"
  }, {
    "geometry" : {
      "coordinates" : [ -80.304614, 26.010574 ],
      "type" : "Point"
    },
    "properties" : {
      "Google Maps URL" : "http://maps.google.com/?q=11401+Pines+Blvd,+Pembroke+Pines,+FL+33026&ftid=0x88d9a66d63e8aad1:0xb4b26d9cca5eeaa9",
      "Location" : {
        "Latitude" : "26.010574",
        "Longitude" : "-80.304614"
      },
      "Published" : "2017-12-26T06:28:45Z",
      "Title" : "11401 Pines Blvd, Pembroke Pines, FL 33026",
      "Updated" : "2017-12-26T06:28:45Z"
    },
    "type" : "Feature"
  }, {
    "geometry" : {
      "coordinates" : [ -117.8694665, 33.7451950 ],
      "type" : "Point"
    },
    "properties" : {
      "Google Maps URL" : "http://maps.google.com/?cid=8066339114636294628",
      "Location" : {
        "Address" : "220 West 1st Street #101, Santa Ana, CA 92701, United States",
        "Business Name" : "Tu Centro Mobile",
        "Country Code" : "US",
        "Geo Coordinates" : {
          "Latitude" : "33.7451950",
          "Longitude" : "-117.8694665"
        }
      },
      "Published" : "2017-12-26T06:28:38Z",
      "Title" : "Tu Centro Mobile",
      "Updated" : "2017-12-26T06:28:38Z"
    },
    "type" : "Feature"
  }, {
    "geometry" : {
      "coordinates" : [ -117.8258040, 33.7203060 ],
      "type" : "Point"
    },
    "properties" : {
      "Google Maps URL" : "http://maps.google.com/?cid=6111429246788364275",
      "Location" : {
        "Address" : "1622 Edinger Avenue E, Tustin, CA 92780, United States",
        "Business Name" : "Cell Spot Cell Phone Repair",
        "Country Code" : "US",
        "Geo Coordinates" : {
          "Latitude" : "33.7203060",
          "Longitude" : "-117.8258040"
        }
      },
      "Published" : "2017-12-26T06:28:31Z",
      "Title" : "Cell Spot Cell Phone Repair",
      "Updated" : "2017-12-26T06:28:31Z"
    },
    "type" : "Feature"
  }, {
    "geometry" : {
      "coordinates" : [ -117.8636347, 33.6894205 ],
      "type" : "Point"
    },
    "properties" : {
      "Google Maps URL" : "http://maps.google.com/?cid=1868113304997956687",
      "Location" : {
        "Address" : "17985 Main Street Ste B, Irvine, CA 92614, United States",
        "Business Name" : "Cheapest iPhone, iPad, Samsung and Smartphone Repair",
        "Country Code" : "US",
        "Geo Coordinates" : {
          "Latitude" : "33.6894205",
          "Longitude" : "-117.8636347"
        }
      },
      "Published" : "2017-12-26T06:28:24Z",
      "Title" : "Cheapest iPhone, iPad, Samsung and Smartphone Repair",
      "Updated" : "2017-12-26T06:28:24Z"
    },
    "type" : "Feature"
  }, {
    "geometry" : {
      "coordinates" : [ -76.462651, 37.055132 ],
      "type" : "Point"
    },
    "properties" : {
      "Google Maps URL" : "http://maps.google.com/?q=11002+Jefferson+Ave,+Newport+News,+VA+23601&ftid=0x89b07873f1baf7d1:0x16a78965fff68bdb",
      "Location" : {
        "Latitude" : "37.055132",
        "Longitude" : "-76.462651"
      },
      "Published" : "2017-12-26T06:28:17Z",
      "Title" : "11002 Jefferson Ave, Newport News, VA 23601",
      "Updated" : "2017-12-26T06:28:17Z"
    },
    "type" : "Feature"
  }, {
    "geometry" : {
      "coordinates" : [ -80.1162052, 26.1689983 ],
      "type" : "Point"
    },
    "properties" : {
      "Google Maps URL" : "http://maps.google.com/?cid=9556560146409342481",
      "Location" : {
        "Address" : "3200 North Federal Highway, Fort Lauderdale, FL 33306, United States",
        "Business Name" : "iRepair Hut",
        "Country Code" : "US",
        "Geo Coordinates" : {
          "Latitude" : "26.1689983",
          "Longitude" : "-80.1162052"
        }
      },
      "Published" : "2017-12-26T06:28:10Z",
      "Title" : "iRepair Hut",
      "Updated" : "2017-12-26T06:28:10Z"
    },
    "type" : "Feature"
  }, {
    "geometry" : {
      "coordinates" : [ -80.1170573, 26.1669895 ],
      "type" : "Point"
    },
    "properties" : {
      "Google Maps URL" : "http://maps.google.com/?cid=3551470712018356009",
      "Location" : {
        "Address" : "2216 East Oakland Park Boulevard Unit B, Fort Lauderdale, FL 33306, United States",
        "Business Name" : "MobileLuv",
        "Country Code" : "US",
        "Geo Coordinates" : {
          "Latitude" : "26.1669895",
          "Longitude" : "-80.1170573"
        }
      },
      "Published" : "2017-12-26T06:28:03Z",
      "Title" : "MobileLuv",
      "Updated" : "2017-12-26T06:28:03Z"
    },
    "type" : "Feature"
  }, {
    "geometry" : {
      "coordinates" : [ -80.1475896, 26.3175512 ],
      "type" : "Point"
    },
    "properties" : {
      "Google Maps URL" : "http://maps.google.com/?cid=680616516102162121",
      "Location" : {
        "Address" : "3240 West Hillsboro Boulevard, Deerfield Beach, FL 33442, United States",
        "Business Name" : "All Phones Pro",
        "Country Code" : "US",
        "Geo Coordinates" : {
          "Latitude" : "26.3175512",
          "Longitude" : "-80.1475896"
        }
      },
      "Published" : "2017-12-26T06:27:56Z",
      "Title" : "All Phones Pro",
      "Updated" : "2017-12-26T06:27:56Z"
    },
    "type" : "Feature"
  }, {
    "geometry" : {
      "coordinates" : [ -73.8914010, 40.7474531 ],
      "type" : "Point"
    },
    "properties" : {
      "Google Maps URL" : "http://maps.google.com/?cid=17966443100982370590",
      "Location" : {
        "Address" : "37-57 74th Street, Jackson Heights, NY 11372, United States",
        "Business Name" : "Citibank",
        "Country Code" : "US",
        "Geo Coordinates" : {
          "Latitude" : "40.7474531",
          "Longitude" : "-73.8914010"
        }
      },
      "Published" : "2017-12-26T06:27:49Z",
      "Title" : "Citibank",
      "Updated" : "2017-12-26T06:27:49Z"
    },
    "type" : "Feature"
  }, {
    "geometry" : {
      "coordinates" : [ -73.8986420, 40.7006510 ],
      "type" : "Point"
    },
    "properties" : {
      "Google Maps URL" : "http://maps.google.com/?cid=14506170787064249060",
      "Location" : {
        "Address" : "5939 Myrtle Avenue, Ridgewood, NY 11385, United States",
        "Business Name" : "Phone Repair",
        "Country Code" : "US",
        "Geo Coordinates" : {
          "Latitude" : "40.7006510",
          "Longitude" : "-73.8986420"
        }
      },
      "Published" : "2017-12-26T06:27:42Z",
      "Title" : "Phone Repair",
      "Updated" : "2017-12-26T06:27:42Z"
    },
    "type" : "Feature"
  }, {
    "geometry" : {
      "coordinates" : [ -73.9039900, 40.7002460 ],
      "type" : "Point"
    },
    "properties" : {
      "Google Maps URL" : "http://maps.google.com/?cid=11442233320329523827",
      "Location" : {
        "Address" : "56-60 Myrtle Ave, Queens, NY 11385, Ridgewood, NY 11385, United States",
        "Business Name" : "Wireless Tech",
        "Country Code" : "US",
        "Geo Coordinates" : {
          "Latitude" : "40.7002460",
          "Longitude" : "-73.9039900"
        }
      },
      "Published" : "2017-12-26T06:27:35Z",
      "Title" : "Wireless Tech",
      "Updated" : "2017-12-26T06:27:35Z"
    },
    "type" : "Feature"
  }, {
    "geometry" : {
      "coordinates" : [ -73.927149, 40.703596 ],
      "type" : "Point"
    },
    "properties" : {
      "Google Maps URL" : "http://maps.google.com/?q=40.703596399999995,-73.9271485",
      "Location" : {
        "Latitude" : "40.703596",
        "Longitude" : "-73.927149"
      },
      "Published" : "2017-12-26T06:27:28Z",
      "Title" : "40.703596399999995,-73.9271485",
      "Updated" : "2017-12-26T06:27:28Z"
    },
    "type" : "Feature"
  }, {
    "geometry" : {
      "coordinates" : [ -73.9315296, 40.6942004 ],
      "type" : "Point"
    },
    "properties" : {
      "Google Maps URL" : "http://maps.google.com/?cid=18116973340563122786",
      "Location" : {
        "Address" : "4 Malcolm X Boulevard, Brooklyn, NY 11221, United States",
        "Business Name" : "Ozogeeks (Phonegeeksnyc) - Phone Repair & Macbook Repair + Sales",
        "Country Code" : "US",
        "Geo Coordinates" : {
          "Latitude" : "40.6942004",
          "Longitude" : "-73.9315296"
        }
      },
      "Published" : "2017-12-26T06:27:21Z",
      "Title" : "Ozogeeks (Bedstuy) - Phone Repair & Macbook Repair + Sales",
      "Updated" : "2017-12-26T06:27:21Z"
    },
    "type" : "Feature"
  }, {
    "geometry" : {
      "coordinates" : [ -73.9102330, 40.6689750 ],
      "type" : "Point"
    },
    "properties" : {
      "Google Maps URL" : "http://maps.google.com/?cid=5489465910589183153",
      "Location" : {
        "Address" : "451 Rockaway Avenue, Brooklyn, NY 11212, United States",
        "Business Name" : "Best Beep And Cellular",
        "Country Code" : "US",
        "Geo Coordinates" : {
          "Latitude" : "40.6689750",
          "Longitude" : "-73.9102330"
        }
      },
      "Published" : "2017-12-26T06:27:14Z",
      "Title" : "Best Beep And Cellular",
      "Updated" : "2017-12-26T06:27:14Z"
    },
    "type" : "Feature"
  }, {
    "geometry" : {
      "coordinates" : [ -118.4308645, 34.1851425 ],
      "type" : "Point"
    },
    "properties" : {
      "Google Maps URL" : "http://maps.google.com/?cid=16139391720303669997",
      "Location" : {
        "Address" : "6308 Woodman Avenue #217, Van Nuys, CA 91401, United States",
        "Business Name" : "Royalty iPhone Repair",
        "Country Code" : "US",
        "Geo Coordinates" : {
          "Latitude" : "34.1851425",
          "Longitude" : "-118.4308645"
        }
      },
      "Published" : "2017-12-26T06:27:07Z",
      "Title" : "Royalty iPhone Repair",
      "Updated" : "2017-12-26T06:27:07Z"
    },
    "type" : "Feature"
  }, {
    "geometry" : {
      "coordinates" : [ -73.9488880, 40.6413843 ],
      "type" : "Point"
    },
    "properties" : {
      "Google Maps URL" : "http://maps.google.com/?cid=8571458008254608799",
      "Location" : {
        "Address" : "1824 Nostrand Avenue, Brooklyn, NY 11226, United States",
        "Business Name" : "JusFix Services LLC",
        "Country Code" : "US",
        "Geo Coordinates" : {
          "Latitude" : "40.6413843",
          "Longitude" : "-73.9488880"
        }
      },
      "Published" : "2017-12-26T06:27:00Z",
      "Title" : "JusFix Services LLC",
      "Updated" : "2017-12-26T06:27:00Z"
    },
    "type" : "Feature"
  }, {
    "geometry" : {
      "coordinates" : [ -73.9584379, 40.6483565 ],
      "type" : "Point"
    },
    "properties" : {
      "Google Maps URL" : "http://maps.google.com/?cid=1476245457653289740",
      "Location" : {
        "Address" : "948 Flatbush Avenue, Brooklyn, NY 11226, United States",
        "Business Name" : "Boost Mobile Premier Store",
        "Country Code" : "US",
        "Geo Coordinates" : {
          "Latitude" : "40.6483565",
          "Longitude" : "-73.9584379"
        }
      },
      "Published" : "2017-12-26T06:26:53Z",
      "Title" : "Boost Mobile Premier Store",
      "Updated" : "2017-12-26T06:26:53Z"
    },
    "type" : "Feature"
  }, {
    "geometry" : {
      "coordinates" : [ -73.9774982, 40.5922829 ],
      "type" : "Point"
    },
    "properties" : {
      "Google Maps URL" : "http://maps.google.com/?cid=3764748009045161098",
      "Location" : {
        "Address" : "2845 86th Street, Brooklyn, NY 11223, United States",
        "Business Name" : "Repair on sight Broken Phone or tablet we come to you",
        "Country Code" : "US",
        "Geo Coordinates" : {
          "Latitude" : "40.5922829",
          "Longitude" : "-73.9774982"
        }
      },
      "Published" : "2017-12-26T06:26:46Z",
      "Title" : "Repair on sight Broken Phone or tablet we come to you",
      "Updated" : "2017-12-26T06:26:46Z"
    },
    "type" : "Feature"
  }, {
    "geometry" : {
      "coordinates" : [ -73.9504130, 40.7928020 ],
      "type" : "Point"
    },
    "properties" : {
      "Google Maps URL" : "http://maps.google.com/?cid=14386591088297152036",
      "Location" : {
        "Address" : "1546 Madison Avenue, New York, NY 10029, United States",
        "Business Name" : "Tmobile/ BOOST MOBILE",
        "Country Code" : "US",
        "Geo Coordinates" : {
          "Latitude" : "40.7928020",
          "Longitude" : "-73.9504130"
        }
      },
      "Published" : "2017-12-26T06:26:39Z",
      "Title" : "Tmobile/ BOOST MOBILE",
      "Updated" : "2017-12-26T06:26:39Z"
    },
    "type" : "Feature"
  }, {
    "geometry" : {
      "coordinates" : [ -73.943662, 40.806886 ],
      "type" : "Point"
    },
    "properties" : {
      "Google Maps URL" : "http://maps.google.com/?q=40.8068856,-73.9436625",
      "Location" : {
        "Latitude" : "40.806886",
        "Longitude" : "-73.943662"
      },
      "Published" : "2017-12-26T06:26:32Z",
      "Title" : "40.8068856,-73.9436625",
      "Updated" : "2017-12-26T06:26:32Z"
    },
    "type" : "Feature"
  }, {
    "geometry" : {
      "coordinates" : [ -71.2321988, 42.7673891 ],
      "type" : "Point"
    },
    "properties" : {
      "Google Maps URL" : "http://maps.google.com/?cid=11385577734049098726",
      "Location" : {
        "Address" : "99 Rockingham Park Boulevard, Salem, NH 03079, United States",
        "Business Name" : "Apple Rockingham Park",
        "Country Code" : "US",
        "Geo Coordinates" : {
          "Latitude" : "42.7673891",
          "Longitude" : "-71.2321988"
        }
      },
      "Published" : "2017-12-26T06:26:25Z",
      "Title" : "Apple Rockingham Park",
      "Updated" : "2017-12-26T06:26:25Z"
    },
    "type" : "Feature"
  }, {
    "geometry" : {
      "coordinates" : [ -71.4370340, 42.7015020 ],
      "type" : "Point"
    },
    "properties" : {
      "Google Maps URL" : "http://maps.google.com/?cid=13803231842942902271",
      "Location" : {
        "Address" : "310 Daniel Webster Highway, Nashua, NH 03060, United States",
        "Business Name" : "Apple Pheasant Lane",
        "Country Code" : "US",
        "Geo Coordinates" : {
          "Latitude" : "42.7015020",
          "Longitude" : "-71.4370340"
        }
      },
      "Published" : "2017-12-26T06:26:18Z",
      "Title" : "Apple Pheasant Lane",
      "Updated" : "2017-12-26T06:26:18Z"
    },
    "type" : "Feature"
  }, {
    "geometry" : {
      "coordinates" : [ -115.3144745, 36.1284285 ],
      "type" : "Point"
    },
    "properties" : {
      "Google Maps URL" : "http://maps.google.com/?cid=8462489359391533995",
      "Location" : {
        "Address" : "3370 South Hualapai Way #145, Las Vegas, NV 89117, United States",
        "Business Name" : "Iphix Smartphone and Computer Repairs",
        "Country Code" : "US",
        "Geo Coordinates" : {
          "Latitude" : "36.1284285",
          "Longitude" : "-115.3144745"
        }
      },
      "Published" : "2017-12-26T06:26:11Z",
      "Title" : "Iphix Smartphone and Computer Repairs",
      "Updated" : "2017-12-26T06:26:11Z"
    },
    "type" : "Feature"
  }, {
    "geometry" : {
      "coordinates" : [ -118.2510139, 34.0456553 ],
      "type" : "Point"
    },
    "properties" : {
      "Google Maps URL" : "http://maps.google.com/?cid=769610012369935565",
      "Location" : {
        "Address" : "600 South Spring Street, Los Angeles, CA 90014, United States",
        "Business Name" : "Spring Street Mac - Apple Sales & Service Center",
        "Country Code" : "US",
        "Geo Coordinates" : {
          "Latitude" : "34.0456553",
          "Longitude" : "-118.2510139"
        }
      },
      "Published" : "2017-12-26T06:26:04Z",
      "Title" : "Spring Street Mac - Apple Sales & Service Center",
      "Updated" : "2017-12-26T06:26:04Z"
    },
    "type" : "Feature"
  }, {
    "geometry" : {
      "coordinates" : [ -115.1186434, 36.0997382 ],
      "type" : "Point"
    },
    "properties" : {
      "Google Maps URL" : "http://maps.google.com/?cid=10253179302225815943",
      "Location" : {
        "Address" : "2405 East Tropicana Avenue, Las Vegas, NV 89121, United States",
        "Business Name" : "Wireless Toyz #502",
        "Country Code" : "US",
        "Geo Coordinates" : {
          "Latitude" : "36.0997382",
          "Longitude" : "-115.1186434"
        }
      },
      "Published" : "2017-12-26T06:25:57Z",
      "Title" : "Wireless Toyz #502",
      "Updated" : "2017-12-26T06:25:57Z"
    },
    "type" : "Feature"
  }, {
    "geometry" : {
      "coordinates" : [ -75.6530250, 39.6792850 ],
      "type" : "Point"
    },
    "properties" : {
      "Google Maps URL" : "http://maps.google.com/?cid=2670333949121167859",
      "Location" : {
        "Address" : "125 Christiana Mall, Newark, DE 19702, United States",
        "Business Name" : "Apple Christiana Mall",
        "Country Code" : "US",
        "Geo Coordinates" : {
          "Latitude" : "39.6792850",
          "Longitude" : "-75.6530250"
        }
      },
      "Published" : "2017-12-26T06:25:50Z",
      "Title" : "Apple Christiana Mall",
      "Updated" : "2017-12-26T06:25:50Z"
    },
    "type" : "Feature"
  } ]
}